1,2018-01-01,01:00:00,1915,8.4
1,2018-01-01,02:00:00,2111,8.8
1,2018-01-01,03:00:00,1971,8.5
1,2018-01-01,04:00:00,1864,6.6
1,2018-01-01,05:00:00,1584,6
1,2018-01-01,06:00:00,1416,5.3
1,2018-01-01,07:00:00,1118,4.5
1,2018-01-01,08:00:00,852,2.9
1,2018-01-01,09:00:00,731,2.9
1,2018-01-01,10:00:00,750,2.9
1,2018-01-01,11:00:00,974,4.4
1,2018-01-01,12:00:00,1470,6.9
1,2018-01-01,13:00:00,1807,8
1,2018-01-01,14:00:00,1782,8.1
1,2018-01-01,15:00:00,1776,6.7
1,2018-01-01,16:00:00,2103,8.9
1,2018-01-01,17:00:00,2070,9.3
1,2018-01-01,18:00:00,2054,8.2
1,2018-01-01,19:00:00,2035,8.2
1,2018-01-01,20:00:00,2032,7.9
1,2018-01-01,21:00:00,1749,7.1
1,2018-01-01,22:00:00,1683,6.4
1,2018-01-01,23:00:00,1511,6.3
1,2018-01-02,00:00:00,1274,5
1,2018-01-02,01:00:00,813,3
1,2018-01-02,02:00:00,540,2.1
1,2018-01-02,03:00:00,287,1.2
1,2018-01-02,04:00:00,198,1
1,2018-01-02,05:00:00,196,1
1,2018-01-02,06:00:00,441,1.9
1,2018-01-02,07:00:00,922,4
1,2018-01-02,08:00:00,1655,5.8
1,2018-01-02,09:00:00,2036,6.8
1,2018-01-02,10:00:00,2266,7.5
1,2018-01-02,11:00:00,2088,8.1
1,2018-01-02,12:00:00,2231,8.7
1,2018-01-02,13:00:00,2364,8.6
1,2018-01-02,14:00:00,2312,8.3
1,2018-01-02,15:00:00,2282,8.5
1,2018-01-02,16:00:00,2432,8.7
1,2018-01-02,17:00:00,2338,8.7
1,2018-01-02,18:00:00,2243,7.8
1,2018-01-02,19:00:00,2495,8.2
1,2018-01-02,20:00:00,2285,7.4
1,2018-01-02,21:00:00,2053,6.9
1,2018-01-02,22:00:00,1837,6.6
1,2018-01-02,23:00:00,1671,5.9
1,2018-01-03,00:00:00,1598,5.8
1,2018-01-03,01:00:00,1029,4.4
1,2018-01-03,02:00:00,735,3
1,2018-01-03,03:00:00,460,1.8
1,2018-01-03,04:00:00,279,1.3
1,2018-01-03,05:00:00,288,1.3
1,2018-01-03,06:00:00,525,2.3
1,2018-01-03,07:00:00,989,3.8
1,2018-01-03,08:00:00,1828,6.9
1,2018-01-03,09:00:00,2315,8
1,2018-01-03,10:00:00,2421,7.5
1,2018-01-03,11:00:00,2277,9
1,2018-01-03,12:00:00,2284,8.3
1,2018-01-03,13:00:00,2399,9.1
1,2018-01-03,14:00:00,2359,7.9
1,2018-01-03,15:00:00,2392,8.8
1,2018-01-03,16:00:00,2357,8.9
1,2018-01-03,17:00:00,2322,8.9
1,2018-01-03,18:00:00,2283,7.7
1,2018-01-03,19:00:00,2511,8.6
1,2018-01-03,20:00:00,2525,8.1
1,2018-01-03,21:00:00,2402,8
1,2018-01-03,22:00:00,1905,7.1
1,2018-01-03,23:00:00,1954,7.6
1,2018-01-04,00:00:00,1723,6.2
1,2018-01-04,01:00:00,1146,4.2
1,2018-01-04,02:00:00,761,2.5
1,2018-01-04,03:00:00,428,1.7
1,2018-01-04,04:00:00,280,1.2
1,2018-01-04,05:00:00,319,1.3
1,2018-01-04,06:00:00,484,2.1
1,2018-01-04,07:00:00,983,4.3
1,2018-01-04,08:00:00,1881,6.8
1,2018-01-04,09:00:00,2232,7.3
1,2018-01-04,10:00:00,2574,8.4
1,2018-01-04,11:00:00,2300,8.7
1,2018-01-04,12:00:00,2275,8.9
1,2018-01-04,13:00:00,2371,8.7
1,2018-01-04,14:00:00,2385,8.4
1,2018-01-04,15:00:00,2366,8.8
1,2018-01-04,16:00:00,2362,15.2
1,2018-01-04,17:00:00,1925,35.2
1,2018-01-04,18:00:00,1795,51.2
1,2018-01-04,19:00:00,2229,13.7
1,2018-01-04,20:00:00,2503,16.2
1,2018-01-04,21:00:00,2488,8.4
1,2018-01-04,22:00:00,2065,7
1,2018-01-04,23:00:00,1921,7.2
1,2018-01-05,00:00:00,1973,7.4
1,2018-01-05,01:00:00,1433,5.1
1,2018-01-05,02:00:00,1099,4
1,2018-01-05,03:00:00,640,2.6
1,2018-01-05,04:00:00,398,1.6
1,2018-01-05,05:00:00,348,1.6
1,2018-01-05,06:00:00,568,2.6
1,2018-01-05,07:00:00,978,3.9
1,2018-01-05,08:00:00,1907,6.5
1,2018-01-05,09:00:00,2287,7.7
1,2018-01-05,10:00:00,2465,7.7
1,2018-01-05,11:00:00,2413,8.5
1,2018-01-05,12:00:00,2417,8.8
1,2018-01-05,13:00:00,2366,8.2
1,2018-01-05,14:00:00,2434,8.2
1,2018-01-05,15:00:00,2626,13
1,2018-01-05,16:00:00,2225,22.4
1,2018-01-05,17:00:00,2153,30.4
1,2018-01-05,18:00:00,2377,12.6
1,2018-01-05,19:00:00,2549,7.8
1,2018-01-05,20:00:00,2652,8.1
1,2018-01-05,21:00:00,2659,9.3
1,2018-01-05,22:00:00,2312,8.4
1,2018-01-05,23:00:00,2172,8.8
1,2018-01-06,00:00:00,2090,8.1
1,2018-01-06,01:00:00,1940,7.3
1,2018-01-06,02:00:00,1549,5.8
1,2018-01-06,03:00:00,1292,4.9
1,2018-01-06,04:00:00,857,2.9
1,2018-01-06,05:00:00,701,2.6
1,2018-01-06,06:00:00,700,2.7
1,2018-01-06,07:00:00,703,3
1,2018-01-06,08:00:00,795,3.6
1,2018-01-06,09:00:00,1168,5
1,2018-01-06,10:00:00,1632,6
1,2018-01-06,11:00:00,2165,8
1,2018-01-06,12:00:00,2271,8.6
1,2018-01-06,13:00:00,2508,9.2
1,2018-01-06,14:00:00,2457,8.6
1,2018-01-06,15:00:00,2437,8.2
1,2018-01-06,16:00:00,2527,8.7
1,2018-01-06,17:00:00,2443,7.8
1,2018-01-06,18:00:00,2405,8.7
1,2018-01-06,19:00:00,2310,10
1,2018-01-06,20:00:00,2537,9.2
1,2018-01-06,21:00:00,2451,9.2
1,2018-01-06,22:00:00,2256,8.1
1,2018-01-06,23:00:00,2038,8.1
1,2018-01-07,00:00:00,2095,7.7
1,2018-01-07,01:00:00,2023,7.4
1,2018-01-07,02:00:00,1926,7.1
1,2018-01-07,03:00:00,1493,5.6
1,2018-01-07,04:00:00,1094,4
1,2018-01-07,05:00:00,910,3.4
1,2018-01-07,06:00:00,722,2.9
1,2018-01-07,07:00:00,689,2.8
1,2018-01-07,08:00:00,570,2.4
1,2018-01-07,09:00:00,668,2.8
1,2018-01-07,10:00:00,1071,4.2
1,2018-01-07,11:00:00,1333,4.5
1,2018-01-07,12:00:00,1736,6.4
1,2018-01-07,13:00:00,2274,8.3
1,2018-01-07,14:00:00,2190,7.7
1,2018-01-07,15:00:00,2257,7.5
1,2018-01-07,16:00:00,2307,8.6
1,2018-01-07,17:00:00,2369,8.4
1,2018-01-07,18:00:00,2155,8.2
1,2018-01-07,19:00:00,2207,8.7
1,2018-01-07,20:00:00,2284,8
1,2018-01-07,21:00:00,1799,6.9
1,2018-01-07,22:00:00,1563,6.1
1,2018-01-07,23:00:00,1387,5.4
1,2018-01-08,00:00:00,1176,4.2
1,2018-01-08,01:00:00,793,3.2
1,2018-01-08,02:00:00,485,2
1,2018-01-08,03:00:00,293,1.3
1,2018-01-08,04:00:00,192,.8
1,2018-01-08,05:00:00,240,1.1
1,2018-01-08,06:00:00,522,2.2
1,2018-01-08,07:00:00,1215,4.9
1,2018-01-08,08:00:00,2363,9.1
1,2018-01-08,09:00:00,2673,9.1
1,2018-01-08,10:00:00,2724,8.2
1,2018-01-08,11:00:00,2344,7.9
1,2018-01-08,12:00:00,2291,7.8
1,2018-01-08,13:00:00,2406,8.4
1,2018-01-08,14:00:00,2452,8.1
1,2018-01-08,15:00:00,2449,7.8
1,2018-01-08,16:00:00,2352,7.9
1,2018-01-08,17:00:00,2275,7.7
1,2018-01-08,18:00:00,2360,7.8
1,2018-01-08,19:00:00,2790,8.5
1,2018-01-08,20:00:00,2756,8.3
1,2018-01-08,21:00:00,2303,6.9
1,2018-01-08,22:00:00,1651,5.3
1,2018-01-08,23:00:00,1454,5
1,2018-01-09,00:00:00,1288,4.2
1,2018-01-09,01:00:00,957,3.6
1,2018-01-09,02:00:00,557,2.1
1,2018-01-09,03:00:00,383,1.6
1,2018-01-09,04:00:00,239,.9
1,2018-01-09,05:00:00,249,1.2
1,2018-01-09,06:00:00,513,2
1,2018-01-09,07:00:00,1247,4.8
1,2018-01-09,08:00:00,2302,8.5
1,2018-01-09,09:00:00,2721,8.4
1,2018-01-09,10:00:00,2875,8.2
1,2018-01-09,11:00:00,2482,9.1
1,2018-01-09,12:00:00,2441,8.2
1,2018-01-09,13:00:00,2667,8.8
1,2018-01-09,14:00:00,2453,8.9
1,2018-01-09,15:00:00,2555,8.8
1,2018-01-09,16:00:00,2464,9.1
1,2018-01-09,17:00:00,2213,13.1
1,2018-01-09,18:00:00,2149,7.6
1,2018-01-09,19:00:00,2467,6.9
1,2018-01-09,20:00:00,2744,8.2
1,2018-01-09,21:00:00,2569,7.9
1,2018-01-09,22:00:00,1999,5.7
1,2018-01-09,23:00:00,1924,6.6
1,2018-01-10,00:00:00,1906,6.3
1,2018-01-10,01:00:00,1158,4
1,2018-01-10,02:00:00,686,2.5
1,2018-01-10,03:00:00,436,1.6
1,2018-01-10,04:00:00,289,1.3
1,2018-01-10,05:00:00,295,1.5
1,2018-01-10,06:00:00,544,2.6
1,2018-01-10,07:00:00,1232,4.8
1,2018-01-10,08:00:00,2105,7.9
1,2018-01-10,09:00:00,2529,13.2
1,2018-01-10,10:00:00,2808,8.7
1,2018-01-10,11:00:00,2457,8.6
1,2018-01-10,12:00:00,2491,8.4
1,2018-01-10,13:00:00,2649,8.9
1,2018-01-10,14:00:00,2581,8.9
1,2018-01-10,15:00:00,2576,8.1
1,2018-01-10,16:00:00,2409,8.1
1,2018-01-10,17:00:00,2301,17.8
1,2018-01-10,18:00:00,2239,8
1,2018-01-10,19:00:00,2449,10.9
1,2018-01-10,20:00:00,2688,8
1,2018-01-10,21:00:00,2594,7.8
1,2018-01-10,22:00:00,2124,6.7
1,2018-01-10,23:00:00,1996,6.7
1,2018-01-11,00:00:00,1934,6.4
1,2018-01-11,01:00:00,1348,4.9
1,2018-01-11,02:00:00,817,3.1
1,2018-01-11,03:00:00,512,2
1,2018-01-11,04:00:00,315,1.3
1,2018-01-11,05:00:00,291,1.5
1,2018-01-11,06:00:00,587,2.5
1,2018-01-11,07:00:00,1344,4.8
1,2018-01-11,08:00:00,2227,8.5
1,2018-01-11,09:00:00,2586,8.6
1,2018-01-11,10:00:00,2817,8.4
1,2018-01-11,11:00:00,2508,8.7
1,2018-01-11,12:00:00,2592,9
1,2018-01-11,13:00:00,2648,9.5
1,2018-01-11,14:00:00,2554,9.1
1,2018-01-11,15:00:00,2551,8.3
1,2018-01-11,16:00:00,2505,7.9
1,2018-01-11,17:00:00,2044,43.4
1,2018-01-11,18:00:00,2224,25.1
1,2018-01-11,19:00:00,2477,7.6
1,2018-01-11,20:00:00,2869,9
1,2018-01-11,21:00:00,2648,9.1
1,2018-01-11,22:00:00,2197,7.4
1,2018-01-11,23:00:00,2080,7.2
1,2018-01-12,00:00:00,2171,7.3
1,2018-01-12,01:00:00,1654,5.9
1,2018-01-12,02:00:00,1180,4.1
1,2018-01-12,03:00:00,758,2.8
1,2018-01-12,04:00:00,440,1.9
1,2018-01-12,05:00:00,352,1.6
1,2018-01-12,06:00:00,614,2.6
1,2018-01-12,07:00:00,1125,4.7
1,2018-01-12,08:00:00,2211,8.1
1,2018-01-12,09:00:00,2532,10.9
1,2018-01-12,10:00:00,2648,7.9
1,2018-01-12,11:00:00,2422,8.2
1,2018-01-12,12:00:00,2486,8.6
1,2018-01-12,13:00:00,2651,8.4
1,2018-01-12,14:00:00,2594,8.2
1,2018-01-12,15:00:00,2499,7.7
1,2018-01-12,16:00:00,2488,11.1
1,2018-01-12,17:00:00,2296,17.6
1,2018-01-12,18:00:00,2295,13.4
1,2018-01-12,19:00:00,2542,10.3
1,2018-01-12,20:00:00,2745,8.4
1,2018-01-12,21:00:00,2797,8.8
1,2018-01-12,22:00:00,2387,8.5
1,2018-01-12,23:00:00,2080,7.3
1,2018-01-13,00:00:00,2198,8
1,2018-01-13,01:00:00,2114,7.6
1,2018-01-13,02:00:00,1619,5.8
1,2018-01-13,03:00:00,1437,5.4
1,2018-01-13,04:00:00,1028,3.6
1,2018-01-13,05:00:00,854,3
1,2018-01-13,06:00:00,685,2.6
1,2018-01-13,07:00:00,737,3.3
1,2018-01-13,08:00:00,859,3.9
1,2018-01-13,09:00:00,1274,5.2
1,2018-01-13,10:00:00,1773,6.2
1,2018-01-13,11:00:00,2066,6.9
1,2018-01-13,12:00:00,2398,8.8
1,2018-01-13,13:00:00,2410,8.3
1,2018-01-13,14:00:00,2398,7.8
1,2018-01-13,15:00:00,2437,8.4
1,2018-01-13,16:00:00,2547,8.8
1,2018-01-13,17:00:00,2548,8.7
1,2018-01-13,18:00:00,2429,8.6
1,2018-01-13,19:00:00,2370,8.8
1,2018-01-13,20:00:00,2484,9.6
1,2018-01-13,21:00:00,2540,9.3
1,2018-01-13,22:00:00,2297,9.4
1,2018-01-13,23:00:00,2206,8.8
1,2018-01-14,00:00:00,2253,9.3
1,2018-01-14,01:00:00,2180,8.5
1,2018-01-14,02:00:00,2205,7.9
1,2018-01-14,03:00:00,1729,6.4
1,2018-01-14,04:00:00,1270,4.9
1,2018-01-14,05:00:00,1051,3.9
1,2018-01-14,06:00:00,816,3.1
1,2018-01-14,07:00:00,629,2.6
1,2018-01-14,08:00:00,600,2.7
1,2018-01-14,09:00:00,831,3.2
1,2018-01-14,10:00:00,1147,4.5
1,2018-01-14,11:00:00,1602,5.5
1,2018-01-14,12:00:00,1974,6.7
1,2018-01-14,13:00:00,2328,8
1,2018-01-14,14:00:00,2394,8.6
1,2018-01-14,15:00:00,2393,8.1
1,2018-01-14,16:00:00,2410,8.5
1,2018-01-14,17:00:00,2498,8.8
1,2018-01-14,18:00:00,2372,8.5
1,2018-01-14,19:00:00,2318,12.6
1,2018-01-14,20:00:00,2264,8.4
1,2018-01-14,21:00:00,2105,7.8
1,2018-01-14,22:00:00,1675,6.1
1,2018-01-14,23:00:00,1437,5.3
1,2018-01-15,00:00:00,1292,4.8
1,2018-01-15,01:00:00,880,3.5
1,2018-01-15,02:00:00,635,2.5
1,2018-01-15,03:00:00,393,1.8
1,2018-01-15,04:00:00,236,1.1
1,2018-01-15,05:00:00,209,1
1,2018-01-15,06:00:00,570,2.2
1,2018-01-15,07:00:00,1351,5.1
1,2018-01-15,08:00:00,2279,8.4
1,2018-01-15,09:00:00,2791,9.4
1,2018-01-15,10:00:00,2805,9.4
1,2018-01-15,11:00:00,2483,9
1,2018-01-15,12:00:00,2351,8.6
1,2018-01-15,13:00:00,2460,8.5
1,2018-01-15,14:00:00,2272,8.5
1,2018-01-15,15:00:00,2209,10.8
1,2018-01-15,16:00:00,2251,14
1,2018-01-15,17:00:00,1822,54.2
1,2018-01-15,18:00:00,1922,33.2
1,2018-01-15,19:00:00,2490,7.3
1,2018-01-15,20:00:00,2717,7.9
1,2018-01-15,21:00:00,2392,7.2
1,2018-01-15,22:00:00,1988,6
1,2018-01-15,23:00:00,1806,5.9
1,2018-01-16,00:00:00,1640,5.2
1,2018-01-16,01:00:00,1007,3.5
1,2018-01-16,02:00:00,600,2.3
1,2018-01-16,03:00:00,407,1.6
1,2018-01-16,04:00:00,245,1.2
1,2018-01-16,05:00:00,224,.9
1,2018-01-16,06:00:00,570,2.3
1,2018-01-16,07:00:00,1323,5.1
1,2018-01-16,08:00:00,2267,7.6
1,2018-01-16,09:00:00,2790,9.8
1,2018-01-16,10:00:00,2833,9.2
1,2018-01-16,11:00:00,2454,8.3
1,2018-01-16,12:00:00,2438,8
1,2018-01-16,13:00:00,2573,9.2
1,2018-01-16,14:00:00,2407,9.8
1,2018-01-16,15:00:00,2491,8.2
1,2018-01-16,16:00:00,2227,34.4
1,2018-01-16,17:00:00,1923,42.7
1,2018-01-16,18:00:00,2007,36.3
1,2018-01-16,19:00:00,2573,7
1,2018-01-16,20:00:00,2898,10
1,2018-01-16,21:00:00,2540,9.4
1,2018-01-16,22:00:00,2208,6.5
1,2018-01-16,23:00:00,2146,7.4
1,2018-01-17,00:00:00,2083,6.6
1,2018-01-17,01:00:00,1409,5.1
1,2018-01-17,02:00:00,884,3
1,2018-01-17,03:00:00,496,1.9
1,2018-01-17,04:00:00,333,1.3
1,2018-01-17,05:00:00,297,1.4
1,2018-01-17,06:00:00,584,2.5
1,2018-01-17,07:00:00,1315,4.9
1,2018-01-17,08:00:00,2180,8.1
1,2018-01-17,09:00:00,2717,8.2
1,2018-01-17,10:00:00,2830,8.3
1,2018-01-17,11:00:00,2575,8.1
1,2018-01-17,12:00:00,2383,12.2
1,2018-01-17,13:00:00,2557,9.9
1,2018-01-17,14:00:00,2523,8.7
1,2018-01-17,15:00:00,2448,20.6
1,2018-01-17,16:00:00,2177,38.5
1,2018-01-17,17:00:00,1805,64.7
1,2018-01-17,18:00:00,1866,51.2
1,2018-01-17,19:00:00,1941,62.5
1,2018-01-17,20:00:00,2578,21.4
1,2018-01-17,21:00:00,2685,8
1,2018-01-17,22:00:00,2069,6.5
1,2018-01-17,23:00:00,1864,5.9
1,2018-01-18,00:00:00,1956,6.1
1,2018-01-18,01:00:00,1513,5.2
1,2018-01-18,02:00:00,991,3.7
1,2018-01-18,03:00:00,586,2.3
1,2018-01-18,04:00:00,340,1.6
1,2018-01-18,05:00:00,295,1.4
1,2018-01-18,06:00:00,601,2.5
1,2018-01-18,07:00:00,1355,5.2
1,2018-01-18,08:00:00,2255,8.2
1,2018-01-18,09:00:00,2751,8.8
1,2018-01-18,10:00:00,2845,8.6
1,2018-01-18,11:00:00,2370,11.6
1,2018-01-18,12:00:00,2009,21.5
1,2018-01-18,13:00:00,2001,28.4
1,2018-01-18,14:00:00,2327,8.7
1,2018-01-18,15:00:00,2556,8.1
1,2018-01-18,16:00:00,2167,31
1,2018-01-18,17:00:00,1823,55.9
1,2018-01-18,18:00:00,1368,61.6
1,2018-01-18,19:00:00,2105,45.7
1,2018-01-18,20:00:00,2347,37.9
1,2018-01-18,21:00:00,2360,16.5
1,2018-01-18,22:00:00,2273,7.1
1,2018-01-18,23:00:00,2167,7.3
1,2018-01-19,00:00:00,2239,7
1,2018-01-19,01:00:00,1758,5.9
1,2018-01-19,02:00:00,1443,4.8
1,2018-01-19,03:00:00,895,3.1
1,2018-01-19,04:00:00,495,1.9
1,2018-01-19,05:00:00,478,2
1,2018-01-19,06:00:00,703,2.6
1,2018-01-19,07:00:00,1198,4.5
1,2018-01-19,08:00:00,2187,8.2
1,2018-01-19,09:00:00,2677,8.5
1,2018-01-19,10:00:00,2798,8.4
1,2018-01-19,11:00:00,2469,8.3
1,2018-01-19,12:00:00,2508,9.5
1,2018-01-19,13:00:00,2458,13.3
1,2018-01-19,14:00:00,2437,7.5
1,2018-01-19,15:00:00,2396,7.8
1,2018-01-19,16:00:00,2361,19.1
1,2018-01-19,17:00:00,1592,61.4
1,2018-01-19,18:00:00,1791,53
1,2018-01-19,19:00:00,1945,61.3
1,2018-01-19,20:00:00,2390,19.5
1,2018-01-19,21:00:00,2592,10.3
1,2018-01-19,22:00:00,2532,8.9
1,2018-01-19,23:00:00,2369,8.3
1,2018-01-20,00:00:00,2277,8.7
1,2018-01-20,01:00:00,2307,8.2
1,2018-01-20,02:00:00,1684,6.8
1,2018-01-20,03:00:00,1520,5.5
1,2018-01-20,04:00:00,990,3.5
1,2018-01-20,05:00:00,849,3.2
1,2018-01-20,06:00:00,686,2.5
1,2018-01-20,07:00:00,711,2.9
1,2018-01-20,08:00:00,931,3.8
1,2018-01-20,09:00:00,1354,5.3
1,2018-01-20,10:00:00,1969,6.5
1,2018-01-20,11:00:00,2263,8
1,2018-01-20,12:00:00,2289,8.2
1,2018-01-20,13:00:00,2452,9.2
1,2018-01-20,14:00:00,2402,8.6
1,2018-01-20,15:00:00,2357,8.8
1,2018-01-20,16:00:00,2507,9.1
1,2018-01-20,17:00:00,2439,9.1
1,2018-01-20,18:00:00,2346,8.2
1,2018-01-20,19:00:00,2219,17.4
1,2018-01-20,20:00:00,2477,12.4
1,2018-01-20,21:00:00,2393,16.5
1,2018-01-20,22:00:00,2229,11.1
1,2018-01-20,23:00:00,2228,8.1
1,2018-01-21,00:00:00,2314,8.3
1,2018-01-21,01:00:00,2264,7.6
1,2018-01-21,02:00:00,2138,7.1
1,2018-01-21,03:00:00,1818,6.7
1,2018-01-21,04:00:00,1456,5.2
1,2018-01-21,05:00:00,1145,4.2
1,2018-01-21,06:00:00,868,3.3
1,2018-01-21,07:00:00,790,2.9
1,2018-01-21,08:00:00,603,2.8
1,2018-01-21,09:00:00,879,3.3
1,2018-01-21,10:00:00,1238,4.5
1,2018-01-21,11:00:00,1689,6.1
1,2018-01-21,12:00:00,2094,7.4
1,2018-01-21,13:00:00,2351,8.1
1,2018-01-21,14:00:00,2343,8.3
1,2018-01-21,15:00:00,2255,8.3
1,2018-01-21,16:00:00,2533,8.9
1,2018-01-21,17:00:00,2396,8
1,2018-01-21,18:00:00,2293,8.1
1,2018-01-21,19:00:00,2348,9.6
1,2018-01-21,20:00:00,2347,8.2
1,2018-01-21,21:00:00,2183,7.2
1,2018-01-21,22:00:00,1796,6.2
1,2018-01-21,23:00:00,1533,5.1
1,2018-01-22,00:00:00,1552,5
1,2018-01-22,01:00:00,989,3.8
1,2018-01-22,02:00:00,634,2.4
1,2018-01-22,03:00:00,343,1.3
1,2018-01-22,04:00:00,249,1.2
1,2018-01-22,05:00:00,260,1.2
1,2018-01-22,06:00:00,554,2.2
1,2018-01-22,07:00:00,1319,4.9
1,2018-01-22,08:00:00,2311,8.8
1,2018-01-22,09:00:00,2486,13.7
1,2018-01-22,10:00:00,2646,8.4
1,2018-01-22,11:00:00,2440,9.1
1,2018-01-22,12:00:00,2541,9.4
1,2018-01-22,13:00:00,2338,8.4
1,2018-01-22,14:00:00,2466,9.9
1,2018-01-22,15:00:00,2450,9
1,2018-01-22,16:00:00,2429,8.8
1,2018-01-22,17:00:00,2184,12.6
1,2018-01-22,18:00:00,2401,8.3
1,2018-01-22,19:00:00,2425,7.9
1,2018-01-22,20:00:00,2576,8.2
1,2018-01-22,21:00:00,2635,9.5
1,2018-01-22,22:00:00,2066,6.6
1,2018-01-22,23:00:00,1980,7.2
1,2018-01-23,00:00:00,1889,6.5
1,2018-01-23,01:00:00,1162,4.2
1,2018-01-23,02:00:00,703,2.6
1,2018-01-23,03:00:00,450,1.8
1,2018-01-23,04:00:00,326,1.5
1,2018-01-23,05:00:00,276,1.3
1,2018-01-23,06:00:00,571,2.3
1,2018-01-23,07:00:00,1339,5.1
1,2018-01-23,08:00:00,2278,8.3
1,2018-01-23,09:00:00,2694,9.4
1,2018-01-23,10:00:00,2932,9
1,2018-01-23,11:00:00,2625,8.8
1,2018-01-23,12:00:00,2566,9.2
1,2018-01-23,13:00:00,2438,7.9
1,2018-01-23,14:00:00,2538,8.6
1,2018-01-23,15:00:00,2670,8.2
1,2018-01-23,16:00:00,2391,8.3
1,2018-01-23,17:00:00,2364,11.9
1,2018-01-23,18:00:00,2236,24.7
1,2018-01-23,19:00:00,2592,11.5
1,2018-01-23,20:00:00,2538,10
1,2018-01-23,21:00:00,2536,7.9
1,2018-01-23,22:00:00,2101,6.6
1,2018-01-23,23:00:00,1771,6
1,2018-01-24,00:00:00,1656,5.3
1,2018-01-24,01:00:00,1138,3.8
1,2018-01-24,02:00:00,647,2.2
1,2018-01-24,03:00:00,442,1.7
1,2018-01-24,04:00:00,251,1.1
1,2018-01-24,05:00:00,247,1.2
1,2018-01-24,06:00:00,446,1.9
1,2018-01-24,07:00:00,1199,4.4
1,2018-01-24,08:00:00,1995,7.5
1,2018-01-24,09:00:00,2637,9.9
1,2018-01-24,10:00:00,2759,8.3
1,2018-01-24,11:00:00,2423,8.3
1,2018-01-24,12:00:00,2192,8.4
1,2018-01-24,13:00:00,2534,8.5
1,2018-01-24,14:00:00,2597,9.8
1,2018-01-24,15:00:00,2589,9.3
1,2018-01-24,16:00:00,2390,8.1
1,2018-01-24,17:00:00,1745,17.9
1,2018-01-24,18:00:00,1360,61
1,2018-01-24,19:00:00,1392,50.7
1,2018-01-24,20:00:00,1650,53.3
1,2018-01-24,21:00:00,2427,7
1,2018-01-24,22:00:00,2179,7.3
1,2018-01-24,23:00:00,1968,6.4
1,2018-01-25,00:00:00,1969,6.4
1,2018-01-25,01:00:00,1290,4.4
1,2018-01-25,02:00:00,869,3.2
1,2018-01-25,03:00:00,531,1.8
1,2018-01-25,04:00:00,294,1.3
1,2018-01-25,05:00:00,286,1.3
1,2018-01-25,06:00:00,508,2.2
1,2018-01-25,07:00:00,1085,3.9
1,2018-01-25,08:00:00,1888,6.5
1,2018-01-25,09:00:00,2417,8
1,2018-01-25,10:00:00,2664,8.6
1,2018-01-25,11:00:00,2315,10.3
1,2018-01-25,12:00:00,2274,10.6
1,2018-01-25,13:00:00,2488,11.6
1,2018-01-25,14:00:00,2387,12.2
1,2018-01-25,15:00:00,2442,11.2
1,2018-01-25,16:00:00,2404,11.6
1,2018-01-25,17:00:00,2499,11.5
1,2018-01-25,18:00:00,2378,9.9
1,2018-01-25,19:00:00,2384,13.4
1,2018-01-25,20:00:00,2357,20.6
1,2018-01-25,21:00:00,2295,12.2
1,2018-01-25,22:00:00,2009,9.2
1,2018-01-25,23:00:00,1893,8.7
1,2018-01-26,00:00:00,1996,8.9
1,2018-01-26,01:00:00,1578,7.8
1,2018-01-26,02:00:00,1153,5.7
1,2018-01-26,03:00:00,825,4
1,2018-01-26,04:00:00,437,2.1
1,2018-01-26,05:00:00,380,2
1,2018-01-26,06:00:00,575,2.9
1,2018-01-26,07:00:00,1120,6
1,2018-01-26,08:00:00,1792,8.4
1,2018-01-26,09:00:00,2393,9.7
1,2018-01-26,10:00:00,2568,10.2
1,2018-01-26,11:00:00,2376,10.4
1,2018-01-26,12:00:00,2508,11.8
1,2018-01-26,13:00:00,2423,13.2
1,2018-01-26,14:00:00,2153,10
1,2018-01-26,15:00:00,2565,11.5
1,2018-01-26,16:00:00,2545,11.3
1,2018-01-26,17:00:00,2519,11.1
1,2018-01-26,18:00:00,2645,12.2
1,2018-01-26,19:00:00,2692,11.7
1,2018-01-26,20:00:00,2876,13.2
1,2018-01-26,21:00:00,2403,11.3
1,2018-01-26,22:00:00,2050,13.8
1,2018-01-26,23:00:00,2015,8.6
1,2018-01-27,00:00:00,2008,9.6
1,2018-01-27,01:00:00,2001,9
1,2018-01-27,02:00:00,1488,7.5
1,2018-01-27,03:00:00,1275,6.1
1,2018-01-27,04:00:00,938,4.6
1,2018-01-27,05:00:00,784,3.7
1,2018-01-27,06:00:00,583,2.7
1,2018-01-27,07:00:00,704,3.5
1,2018-01-27,08:00:00,821,4.7
1,2018-01-27,09:00:00,1108,5.6
1,2018-01-27,10:00:00,1629,8.2
1,2018-01-27,11:00:00,1977,9.4
1,2018-01-27,12:00:00,2114,9.7
1,2018-01-27,13:00:00,2323,11
1,2018-01-27,14:00:00,2308,9.9
1,2018-01-27,15:00:00,2359,10.8
1,2018-01-27,16:00:00,2457,11.4
1,2018-01-27,17:00:00,2344,9.9
1,2018-01-27,18:00:00,2490,10.6
1,2018-01-27,19:00:00,2420,11.3
1,2018-01-27,20:00:00,2536,11.6
1,2018-01-27,21:00:00,2476,19.7
1,2018-01-27,22:00:00,1974,9.6
1,2018-01-27,23:00:00,1967,9.9
1,2018-01-28,00:00:00,2130,10.8
1,2018-01-28,01:00:00,1992,9.3
1,2018-01-28,02:00:00,1911,8.4
1,2018-01-28,03:00:00,1465,6.6
1,2018-01-28,04:00:00,1175,5.5
1,2018-01-28,05:00:00,897,4.1
1,2018-01-28,06:00:00,761,3.6
1,2018-01-28,07:00:00,594,2.9
1,2018-01-28,08:00:00,480,2.3
1,2018-01-28,09:00:00,679,3.9
1,2018-01-28,10:00:00,988,5.3
1,2018-01-28,11:00:00,1450,7.1
1,2018-01-28,12:00:00,1840,9.1
1,2018-01-28,13:00:00,2175,10.5
1,2018-01-28,14:00:00,2155,9.3
1,2018-01-28,15:00:00,2180,9.8
1,2018-01-28,16:00:00,2439,12
1,2018-01-28,17:00:00,2354,11
1,2018-01-28,18:00:00,2280,10.4
1,2018-01-28,19:00:00,2143,10.1
1,2018-01-28,20:00:00,2151,9.3
1,2018-01-28,21:00:00,1913,8.5
1,2018-01-28,22:00:00,1425,6.8
1,2018-01-28,23:00:00,1305,6.3
1,2018-01-29,00:00:00,1196,5.5
1,2018-01-29,01:00:00,775,4
1,2018-01-29,02:00:00,533,2.5
1,2018-01-29,03:00:00,293,1.5
1,2018-01-29,04:00:00,216,1.2
1,2018-01-29,05:00:00,216,1.1
1,2018-01-29,06:00:00,473,2.7
1,2018-01-29,07:00:00,1131,6.2
1,2018-01-29,08:00:00,1827,8.5
1,2018-01-29,09:00:00,2486,9.2
1,2018-01-29,10:00:00,2514,9.3
1,2018-01-29,11:00:00,2026,8.8
1,2018-01-29,12:00:00,2258,10.1
1,2018-01-29,13:00:00,2409,10.8
1,2018-01-29,14:00:00,2329,10.6
1,2018-01-29,15:00:00,2360,10
1,2018-01-29,16:00:00,2279,10.1
1,2018-01-29,17:00:00,2290,9.7
1,2018-01-29,18:00:00,2328,10
1,2018-01-29,19:00:00,2501,10.8
1,2018-01-29,20:00:00,2614,9.7
1,2018-01-29,21:00:00,2280,9.3
1,2018-01-29,22:00:00,1635,6.9
1,2018-01-29,23:00:00,1539,8.3
1,2018-01-30,00:00:00,1361,9.6
1,2018-01-30,01:00:00,851,6.9
1,2018-01-30,02:00:00,507,3.9
1,2018-01-30,03:00:00,353,2.5
1,2018-01-30,04:00:00,216,1.6
1,2018-01-30,05:00:00,211,1.5
1,2018-01-30,06:00:00,481,3.4
1,2018-01-30,07:00:00,1131,6.3
1,2018-01-30,08:00:00,1875,8.3
1,2018-01-30,09:00:00,2540,9.5
1,2018-01-30,10:00:00,2664,10.5
1,2018-01-30,11:00:00,2444,10.6
1,2018-01-30,12:00:00,2387,11
1,2018-01-30,13:00:00,2602,11.3
1,2018-01-30,14:00:00,2358,10.7
1,2018-01-30,15:00:00,2466,11
1,2018-01-30,16:00:00,2473,11.1
1,2018-01-30,17:00:00,2461,11.8
1,2018-01-30,18:00:00,2377,10.3
1,2018-01-30,19:00:00,2651,11.3
1,2018-01-30,20:00:00,2757,11.1
1,2018-01-30,21:00:00,2449,10.6
1,2018-01-30,22:00:00,1826,7.8
1,2018-01-30,23:00:00,1630,9
1,2018-01-31,00:00:00,1474,13.5
1,2018-01-31,01:00:00,995,10.8
1,2018-01-31,02:00:00,557,4
1,2018-01-31,03:00:00,335,5.1
1,2018-01-31,04:00:00,244,1.8
1,2018-01-31,05:00:00,230,1.4
1,2018-01-31,06:00:00,436,2.5
1,2018-01-31,07:00:00,1059,5.9
1,2018-01-31,08:00:00,1774,8.3
1,2018-01-31,09:00:00,2489,10.6
1,2018-01-31,10:00:00,2482,9.8
1,2018-01-31,11:00:00,2349,11.1
1,2018-01-31,12:00:00,2308,11.7
1,2018-01-31,13:00:00,2496,11.1
1,2018-01-31,14:00:00,2406,11.9
1,2018-01-31,15:00:00,2347,10.8
1,2018-01-31,16:00:00,2271,11.9
1,2018-01-31,17:00:00,2298,10.6
1,2018-01-31,18:00:00,2415,10.9
1,2018-01-31,19:00:00,2606,10.9
1,2018-01-31,20:00:00,2753,10.9
1,2018-01-31,21:00:00,2649,12.4
1,2018-01-31,22:00:00,1942,8.3
1,2018-01-31,23:00:00,1631,8.4
1,2018-02-01,00:00:00,1629,12.2
2,2018-01-01,01:00:00,1915,11.4
2,2018-01-01,02:00:00,2111,21.6
2,2018-01-01,03:00:00,1971,24
2,2018-01-01,04:00:00,1864,12.4
2,2018-01-01,05:00:00,1584,10.3
2,2018-01-01,06:00:00,1416,8.6
2,2018-01-01,07:00:00,1118,5.1
2,2018-01-01,08:00:00,852,2.5
2,2018-01-01,09:00:00,731,2.3
2,2018-01-01,10:00:00,750,2.7
2,2018-01-01,11:00:00,974,3.8
2,2018-01-01,12:00:00,1470,6.3
2,2018-01-01,13:00:00,1807,7.5
2,2018-01-01,14:00:00,1782,7.1
2,2018-01-01,15:00:00,1776,5.8
2,2018-01-01,16:00:00,2103,8.3
2,2018-01-01,17:00:00,2070,9.5
2,2018-01-01,18:00:00,2054,7.4
2,2018-01-01,19:00:00,2035,7.4
2,2018-01-01,20:00:00,2032,7
2,2018-01-01,21:00:00,1749,6.3
2,2018-01-01,22:00:00,1683,6.1
2,2018-01-01,23:00:00,1511,5.7
2,2018-01-02,00:00:00,1274,4.3
2,2018-01-02,01:00:00,813,3.4
2,2018-01-02,02:00:00,540,2
2,2018-01-02,03:00:00,287,1
2,2018-01-02,04:00:00,198,.9
2,2018-01-02,05:00:00,196,.8
2,2018-01-02,06:00:00,441,2
2,2018-01-02,07:00:00,922,5.2
2,2018-01-02,08:00:00,1655,5.9
2,2018-01-02,09:00:00,2036,6.3
2,2018-01-02,10:00:00,2266,7.3
2,2018-01-02,11:00:00,2088,6.8
2,2018-01-02,12:00:00,2231,7.6
2,2018-01-02,13:00:00,2364,7.8
2,2018-01-02,14:00:00,2312,7.6
2,2018-01-02,15:00:00,2282,7.2
2,2018-01-02,16:00:00,2432,11
2,2018-01-02,17:00:00,2338,41.8
2,2018-01-02,18:00:00,2243,48.3
2,2018-01-02,19:00:00,2495,12.3
2,2018-01-02,20:00:00,2285,7.9
2,2018-01-02,21:00:00,2053,6.3
2,2018-01-02,22:00:00,1837,6.4
2,2018-01-02,23:00:00,1671,5.5
2,2018-01-03,00:00:00,1598,5.1
2,2018-01-03,01:00:00,1029,5.4
2,2018-01-03,02:00:00,735,3.3
2,2018-01-03,03:00:00,460,1.8
2,2018-01-03,04:00:00,279,1.1
2,2018-01-03,05:00:00,288,1.2
2,2018-01-03,06:00:00,525,2.4
2,2018-01-03,07:00:00,989,4.9
2,2018-01-03,08:00:00,1828,6.6
2,2018-01-03,09:00:00,2315,7.4
2,2018-01-03,10:00:00,2421,7
2,2018-01-03,11:00:00,2277,8
2,2018-01-03,12:00:00,2284,7.4
2,2018-01-03,13:00:00,2399,7.3
2,2018-01-03,14:00:00,2359,6.5
2,2018-01-03,15:00:00,2392,7.3
2,2018-01-03,16:00:00,2357,14.1
2,2018-01-03,17:00:00,2322,36.2
2,2018-01-03,18:00:00,2283,23.6
2,2018-01-03,19:00:00,2511,7.9
2,2018-01-03,20:00:00,2525,16.9
2,2018-01-03,21:00:00,2402,7
2,2018-01-03,22:00:00,1905,6.3
2,2018-01-03,23:00:00,1954,7.1
2,2018-01-04,00:00:00,1723,5.5
2,2018-01-04,01:00:00,1146,5.3
2,2018-01-04,02:00:00,761,2.6
2,2018-01-04,03:00:00,428,1.6
2,2018-01-04,04:00:00,280,1.2
2,2018-01-04,05:00:00,319,1.3
2,2018-01-04,06:00:00,484,2.2
2,2018-01-04,07:00:00,983,5.6
2,2018-01-04,08:00:00,1881,6.8
2,2018-01-04,09:00:00,2232,15.5
2,2018-01-04,10:00:00,2574,7.9
2,2018-01-04,11:00:00,2300,7.9
2,2018-01-04,12:00:00,2275,7.4
2,2018-01-04,13:00:00,2371,8
2,2018-01-04,14:00:00,2385,8.2
2,2018-01-04,15:00:00,2366,9.3
2,2018-01-04,16:00:00,2362,43.1
2,2018-01-04,17:00:00,1925,58.4
2,2018-01-04,18:00:00,1795,64
2,2018-01-04,19:00:00,2229,55.7
2,2018-01-04,20:00:00,2503,54.9
2,2018-01-04,21:00:00,2488,13.1
2,2018-01-04,22:00:00,2065,6
2,2018-01-04,23:00:00,1921,6.3
2,2018-01-05,00:00:00,1973,6.3
2,2018-01-05,01:00:00,1433,7.2
2,2018-01-05,02:00:00,1099,5.3
2,2018-01-05,03:00:00,640,2.5
2,2018-01-05,04:00:00,398,1.6
2,2018-01-05,05:00:00,348,1.4
2,2018-01-05,06:00:00,568,2.5
2,2018-01-05,07:00:00,978,5.3
2,2018-01-05,08:00:00,1907,6.3
2,2018-01-05,09:00:00,2287,7.1
2,2018-01-05,10:00:00,2465,7
2,2018-01-05,11:00:00,2413,7.6
2,2018-01-05,12:00:00,2417,7.9
2,2018-01-05,13:00:00,2366,6.9
2,2018-01-05,14:00:00,2434,28.5
2,2018-01-05,15:00:00,2626,51.5
2,2018-01-05,16:00:00,2225,55.5
2,2018-01-05,17:00:00,2153,61.1
2,2018-01-05,18:00:00,2377,48.6
2,2018-01-05,19:00:00,2549,48.4
2,2018-01-05,20:00:00,2652,31.2
2,2018-01-05,21:00:00,2659,9.7
2,2018-01-05,22:00:00,2312,7.4
2,2018-01-05,23:00:00,2172,8
2,2018-01-06,00:00:00,2090,7.6
2,2018-01-06,01:00:00,1940,6.3
2,2018-01-06,02:00:00,1549,8.2
2,2018-01-06,03:00:00,1292,6.6
2,2018-01-06,04:00:00,857,2.8
2,2018-01-06,05:00:00,701,2.5
2,2018-01-06,06:00:00,700,2.6
2,2018-01-06,07:00:00,703,3.4
2,2018-01-06,08:00:00,795,4.1
2,2018-01-06,09:00:00,1168,6.4
2,2018-01-06,10:00:00,1632,5.6
2,2018-01-06,11:00:00,2165,6.9
2,2018-01-06,12:00:00,2271,8
2,2018-01-06,13:00:00,2508,8.3
2,2018-01-06,14:00:00,2457,8.1
2,2018-01-06,15:00:00,2437,7.4
2,2018-01-06,16:00:00,2527,15.2
2,2018-01-06,17:00:00,2443,42
2,2018-01-06,18:00:00,2405,52.2
2,2018-01-06,19:00:00,2310,54.5
2,2018-01-06,20:00:00,2537,24.8
2,2018-01-06,21:00:00,2451,16.5
2,2018-01-06,22:00:00,2256,9.4
2,2018-01-06,23:00:00,2038,7.8
2,2018-01-07,00:00:00,2095,8.9
2,2018-01-07,01:00:00,2023,6.7
2,2018-01-07,02:00:00,1926,6.1
2,2018-01-07,03:00:00,1493,8.7
2,2018-01-07,04:00:00,1094,4.3
2,2018-01-07,05:00:00,910,3.7
2,2018-01-07,06:00:00,722,2.7
2,2018-01-07,07:00:00,689,2.8
2,2018-01-07,08:00:00,570,2.3
2,2018-01-07,09:00:00,668,2.8
2,2018-01-07,10:00:00,1071,5.1
2,2018-01-07,11:00:00,1333,3.9
2,2018-01-07,12:00:00,1736,5.7
2,2018-01-07,13:00:00,2274,7.6
2,2018-01-07,14:00:00,2190,7.2
2,2018-01-07,15:00:00,2257,6.7
2,2018-01-07,16:00:00,2307,7.9
2,2018-01-07,17:00:00,2369,8.9
2,2018-01-07,18:00:00,2155,7.1
2,2018-01-07,19:00:00,2207,8.4
2,2018-01-07,20:00:00,2284,7.3
2,2018-01-07,21:00:00,1799,5.9
2,2018-01-07,22:00:00,1563,5.6
2,2018-01-07,23:00:00,1387,4.4
2,2018-01-08,00:00:00,1176,3.4
2,2018-01-08,01:00:00,793,3.1
2,2018-01-08,02:00:00,485,1.8
2,2018-01-08,03:00:00,293,1.2
2,2018-01-08,04:00:00,192,.6
2,2018-01-08,05:00:00,240,1
2,2018-01-08,06:00:00,522,2.2
2,2018-01-08,07:00:00,1215,7.5
2,2018-01-08,08:00:00,2363,9.3
2,2018-01-08,09:00:00,2673,10.9
2,2018-01-08,10:00:00,2724,9.4
2,2018-01-08,11:00:00,2344,7.8
2,2018-01-08,12:00:00,2291,7.1
2,2018-01-08,13:00:00,2406,6.8
2,2018-01-08,14:00:00,2452,6.3
2,2018-01-08,15:00:00,2449,6.7
2,2018-01-08,16:00:00,2352,6.8
2,2018-01-08,17:00:00,2275,6.2
2,2018-01-08,18:00:00,2360,6.5
2,2018-01-08,19:00:00,2790,7.5
2,2018-01-08,20:00:00,2756,6.6
2,2018-01-08,21:00:00,2303,5.6
2,2018-01-08,22:00:00,1651,5.1
2,2018-01-08,23:00:00,1454,4.1
2,2018-01-09,00:00:00,1288,3.4
2,2018-01-09,01:00:00,957,3.6
2,2018-01-09,02:00:00,557,2.2
2,2018-01-09,03:00:00,383,1.5
2,2018-01-09,04:00:00,239,.8
2,2018-01-09,05:00:00,249,1.1
2,2018-01-09,06:00:00,513,2.3
2,2018-01-09,07:00:00,1247,7
2,2018-01-09,08:00:00,2302,11.7
2,2018-01-09,09:00:00,2721,9.7
2,2018-01-09,10:00:00,2875,14.8
2,2018-01-09,11:00:00,2482,18.1
2,2018-01-09,12:00:00,2441,13.2
2,2018-01-09,13:00:00,2667,15.2
2,2018-01-09,14:00:00,2453,16.7
2,2018-01-09,15:00:00,2555,11.7
2,2018-01-09,16:00:00,2464,33.8
2,2018-01-09,17:00:00,2213,57.7
2,2018-01-09,18:00:00,2149,40.1
2,2018-01-09,19:00:00,2467,8
2,2018-01-09,20:00:00,2744,7.4
2,2018-01-09,21:00:00,2569,7.4
2,2018-01-09,22:00:00,1999,5.5
2,2018-01-09,23:00:00,1924,5.8
2,2018-01-10,00:00:00,1906,5.6
2,2018-01-10,01:00:00,1158,5.8
2,2018-01-10,02:00:00,686,2.7
2,2018-01-10,03:00:00,436,1.5
2,2018-01-10,04:00:00,289,1.1
2,2018-01-10,05:00:00,295,1.4
2,2018-01-10,06:00:00,544,2.8
2,2018-01-10,07:00:00,1232,6.6
2,2018-01-10,08:00:00,2105,7.4
2,2018-01-10,09:00:00,2529,7.9
2,2018-01-10,10:00:00,2808,7.9
2,2018-01-10,11:00:00,2457,9.8
2,2018-01-10,12:00:00,2491,7.2
2,2018-01-10,13:00:00,2649,8.1
2,2018-01-10,14:00:00,2581,11.3
2,2018-01-10,15:00:00,2576,7.4
2,2018-01-10,16:00:00,2409,31.9
2,2018-01-10,17:00:00,2301,58.1
2,2018-01-10,18:00:00,2239,56.3
2,2018-01-10,19:00:00,2449,55.1
2,2018-01-10,20:00:00,2688,23.1
2,2018-01-10,21:00:00,2594,6.7
2,2018-01-10,22:00:00,2124,5.7
2,2018-01-10,23:00:00,1996,5.6
2,2018-01-11,00:00:00,1934,5.9
2,2018-01-11,01:00:00,1348,6.5
2,2018-01-11,02:00:00,817,3.2
2,2018-01-11,03:00:00,512,1.9
2,2018-01-11,04:00:00,315,1.2
2,2018-01-11,05:00:00,291,1.4
2,2018-01-11,06:00:00,587,2.6
2,2018-01-11,07:00:00,1344,8.3
2,2018-01-11,08:00:00,2227,11.5
2,2018-01-11,09:00:00,2586,10.1
2,2018-01-11,10:00:00,2817,7.2
2,2018-01-11,11:00:00,2508,8.3
2,2018-01-11,12:00:00,2592,7.9
2,2018-01-11,13:00:00,2648,17
2,2018-01-11,14:00:00,2554,7.6
2,2018-01-11,15:00:00,2551,20.4
2,2018-01-11,16:00:00,2505,35.7
2,2018-01-11,17:00:00,2044,65.6
2,2018-01-11,18:00:00,2224,60.4
2,2018-01-11,19:00:00,2477,42.8
2,2018-01-11,20:00:00,2869,27.9
2,2018-01-11,21:00:00,2648,17.9
2,2018-01-11,22:00:00,2197,6.9
2,2018-01-11,23:00:00,2080,6.7
2,2018-01-12,00:00:00,2171,6.3
2,2018-01-12,01:00:00,1654,9.7
2,2018-01-12,02:00:00,1180,4.9
2,2018-01-12,03:00:00,758,2.9
2,2018-01-12,04:00:00,440,1.8
2,2018-01-12,05:00:00,352,1.5
2,2018-01-12,06:00:00,614,2.7
2,2018-01-12,07:00:00,1125,7
2,2018-01-12,08:00:00,2211,7.9
2,2018-01-12,09:00:00,2532,40.1
2,2018-01-12,10:00:00,2648,12.8
2,2018-01-12,11:00:00,2422,17.6
2,2018-01-12,12:00:00,2486,9.7
2,2018-01-12,13:00:00,2651,14.4
2,2018-01-12,14:00:00,2594,7.1
2,2018-01-12,15:00:00,2499,11.4
2,2018-01-12,16:00:00,2488,40.1
2,2018-01-12,17:00:00,2296,53.7
2,2018-01-12,18:00:00,2295,61.7
2,2018-01-12,19:00:00,2542,25.8
2,2018-01-12,20:00:00,2745,8.2
2,2018-01-12,21:00:00,2797,16.1
2,2018-01-12,22:00:00,2387,7.5
2,2018-01-12,23:00:00,2080,6.6
2,2018-01-13,00:00:00,2198,7
2,2018-01-13,01:00:00,2114,6.5
2,2018-01-13,02:00:00,1619,8.6
2,2018-01-13,03:00:00,1437,8.5
2,2018-01-13,04:00:00,1028,3.7
2,2018-01-13,05:00:00,854,2.8
2,2018-01-13,06:00:00,685,2.9
2,2018-01-13,07:00:00,737,3.4
2,2018-01-13,08:00:00,859,4.6
2,2018-01-13,09:00:00,1274,7.4
2,2018-01-13,10:00:00,1773,5.7
2,2018-01-13,11:00:00,2066,6
2,2018-01-13,12:00:00,2398,7.6
2,2018-01-13,13:00:00,2410,7.5
2,2018-01-13,14:00:00,2398,6.9
2,2018-01-13,15:00:00,2437,7.1
2,2018-01-13,16:00:00,2547,8.4
2,2018-01-13,17:00:00,2548,22.4
2,2018-01-13,18:00:00,2429,20.8
2,2018-01-13,19:00:00,2370,25.9
2,2018-01-13,20:00:00,2484,46.8
2,2018-01-13,21:00:00,2540,28.6
2,2018-01-13,22:00:00,2297,26.2
2,2018-01-13,23:00:00,2206,9.1
2,2018-01-14,00:00:00,2253,22.8
2,2018-01-14,01:00:00,2180,7.6
2,2018-01-14,02:00:00,2205,7.4
2,2018-01-14,03:00:00,1729,10.7
2,2018-01-14,04:00:00,1270,6.8
2,2018-01-14,05:00:00,1051,4.5
2,2018-01-14,06:00:00,816,3.4
2,2018-01-14,07:00:00,629,2.9
2,2018-01-14,08:00:00,600,2.8
2,2018-01-14,09:00:00,831,3.8
2,2018-01-14,10:00:00,1147,5.2
2,2018-01-14,11:00:00,1602,4.9
2,2018-01-14,12:00:00,1974,5.5
2,2018-01-14,13:00:00,2328,7.4
2,2018-01-14,14:00:00,2394,7.2
2,2018-01-14,15:00:00,2393,7
2,2018-01-14,16:00:00,2410,8
2,2018-01-14,17:00:00,2498,13.3
2,2018-01-14,18:00:00,2372,15.2
2,2018-01-14,19:00:00,2318,50.4
2,2018-01-14,20:00:00,2264,23.7
2,2018-01-14,21:00:00,2105,7.2
2,2018-01-14,22:00:00,1675,5.9
2,2018-01-14,23:00:00,1437,4.2
2,2018-01-15,00:00:00,1292,3.8
2,2018-01-15,01:00:00,880,3.8
2,2018-01-15,02:00:00,635,2.5
2,2018-01-15,03:00:00,393,1.7
2,2018-01-15,04:00:00,236,1
2,2018-01-15,05:00:00,209,.9
2,2018-01-15,06:00:00,570,2.2
2,2018-01-15,07:00:00,1351,7.9
2,2018-01-15,08:00:00,2279,8.6
2,2018-01-15,09:00:00,2791,16.2
2,2018-01-15,10:00:00,2805,26
2,2018-01-15,11:00:00,2483,7.5
2,2018-01-15,12:00:00,2351,7.3
2,2018-01-15,13:00:00,2460,8.6
2,2018-01-15,14:00:00,2272,26.3
2,2018-01-15,15:00:00,2209,33.8
2,2018-01-15,16:00:00,2251,54.3
2,2018-01-15,17:00:00,1822,65.2
2,2018-01-15,18:00:00,1922,59.9
2,2018-01-15,19:00:00,2490,22.4
2,2018-01-15,20:00:00,2717,14
2,2018-01-15,21:00:00,2392,6
2,2018-01-15,22:00:00,1988,5.2
2,2018-01-15,23:00:00,1806,4.9
2,2018-01-16,00:00:00,1640,4.4
2,2018-01-16,01:00:00,1007,3.9
2,2018-01-16,02:00:00,600,2.3
2,2018-01-16,03:00:00,407,1.3
2,2018-01-16,04:00:00,245,1
2,2018-01-16,05:00:00,224,.9
2,2018-01-16,06:00:00,570,2.5
2,2018-01-16,07:00:00,1323,6.9
2,2018-01-16,08:00:00,2267,7.4
2,2018-01-16,09:00:00,2790,8.8
2,2018-01-16,10:00:00,2833,8.3
2,2018-01-16,11:00:00,2454,26.6
2,2018-01-16,12:00:00,2438,26.9
2,2018-01-16,13:00:00,2573,34.5
2,2018-01-16,14:00:00,2407,47.4
2,2018-01-16,15:00:00,2491,8.8
2,2018-01-16,16:00:00,2227,59
2,2018-01-16,17:00:00,1923,64.4
2,2018-01-16,18:00:00,2007,64.7
2,2018-01-16,19:00:00,2573,54.6
2,2018-01-16,20:00:00,2898,44.8
2,2018-01-16,21:00:00,2540,17.6
2,2018-01-16,22:00:00,2208,5.9
2,2018-01-16,23:00:00,2146,6.3
2,2018-01-17,00:00:00,2083,5.5
2,2018-01-17,01:00:00,1409,5.9
2,2018-01-17,02:00:00,884,3
2,2018-01-17,03:00:00,496,1.7
2,2018-01-17,04:00:00,333,1.3
2,2018-01-17,05:00:00,297,1.3
2,2018-01-17,06:00:00,584,2.6
2,2018-01-17,07:00:00,1315,8
2,2018-01-17,08:00:00,2180,7.6
2,2018-01-17,09:00:00,2717,8
2,2018-01-17,10:00:00,2830,6.9
2,2018-01-17,11:00:00,2575,21.1
2,2018-01-17,12:00:00,2383,56.5
2,2018-01-17,13:00:00,2557,51.2
2,2018-01-17,14:00:00,2523,41.5
2,2018-01-17,15:00:00,2448,51.7
2,2018-01-17,16:00:00,2177,62.5
2,2018-01-17,17:00:00,1805,65
2,2018-01-17,18:00:00,1866,60.6
2,2018-01-17,19:00:00,1941,66.3
2,2018-01-17,20:00:00,2578,58.3
2,2018-01-17,21:00:00,2685,25.7
2,2018-01-17,22:00:00,2069,5.8
2,2018-01-17,23:00:00,1864,5.1
2,2018-01-18,00:00:00,1956,4.9
2,2018-01-18,01:00:00,1513,7.6
2,2018-01-18,02:00:00,991,4.1
2,2018-01-18,03:00:00,586,2.3
2,2018-01-18,04:00:00,340,1.4
2,2018-01-18,05:00:00,295,1.4
2,2018-01-18,06:00:00,601,2.7
2,2018-01-18,07:00:00,1355,8.5
2,2018-01-18,08:00:00,2255,8.5
2,2018-01-18,09:00:00,2751,12.8
2,2018-01-18,10:00:00,2845,26.2
2,2018-01-18,11:00:00,2370,44.9
2,2018-01-18,12:00:00,2009,56.7
2,2018-01-18,13:00:00,2001,60.8
2,2018-01-18,14:00:00,2327,44.5
2,2018-01-18,15:00:00,2556,21.5
2,2018-01-18,16:00:00,2167,63.1
2,2018-01-18,17:00:00,1823,63.5
2,2018-01-18,18:00:00,1368,62.6
2,2018-01-18,19:00:00,2105,58.8
2,2018-01-18,20:00:00,2347,59.4
2,2018-01-18,21:00:00,2360,58.6
2,2018-01-18,22:00:00,2273,5.8
2,2018-01-18,23:00:00,2167,7
2,2018-01-19,00:00:00,2239,6
2,2018-01-19,01:00:00,1758,9.1
2,2018-01-19,02:00:00,1443,6.3
2,2018-01-19,03:00:00,895,3.7
2,2018-01-19,04:00:00,495,1.6
2,2018-01-19,05:00:00,478,1.9
2,2018-01-19,06:00:00,703,2.9
2,2018-01-19,07:00:00,1198,6.6
2,2018-01-19,08:00:00,2187,8.3
2,2018-01-19,09:00:00,2677,13.1
2,2018-01-19,10:00:00,2798,7.5
2,2018-01-19,11:00:00,2469,7.8
2,2018-01-19,12:00:00,2508,47.7
2,2018-01-19,13:00:00,2458,41.2
2,2018-01-19,14:00:00,2437,25.8
2,2018-01-19,15:00:00,2396,24.8
2,2018-01-19,16:00:00,2361,53.4
2,2018-01-19,17:00:00,1592,63.4
2,2018-01-19,18:00:00,1791,63
2,2018-01-19,19:00:00,1945,65.7
2,2018-01-19,20:00:00,2390,59
2,2018-01-19,21:00:00,2592,45.5
2,2018-01-19,22:00:00,2532,31.7
2,2018-01-19,23:00:00,2369,8.8
2,2018-01-20,00:00:00,2277,8.6
2,2018-01-20,01:00:00,2307,7.5
2,2018-01-20,02:00:00,1684,11.4
2,2018-01-20,03:00:00,1520,16
2,2018-01-20,04:00:00,990,4.1
2,2018-01-20,05:00:00,849,3
2,2018-01-20,06:00:00,686,2.7
2,2018-01-20,07:00:00,711,3.3
2,2018-01-20,08:00:00,931,4.5
2,2018-01-20,09:00:00,1354,7
2,2018-01-20,10:00:00,1969,5.4
2,2018-01-20,11:00:00,2263,6.8
2,2018-01-20,12:00:00,2289,7.8
2,2018-01-20,13:00:00,2452,14.8
2,2018-01-20,14:00:00,2402,29.3
2,2018-01-20,15:00:00,2357,9.6
2,2018-01-20,16:00:00,2507,12.9
2,2018-01-20,17:00:00,2439,50.7
2,2018-01-20,18:00:00,2346,57.3
2,2018-01-20,19:00:00,2219,60.8
2,2018-01-20,20:00:00,2477,57
2,2018-01-20,21:00:00,2393,58
2,2018-01-20,22:00:00,2229,26.4
2,2018-01-20,23:00:00,2228,7.5
2,2018-01-21,00:00:00,2314,9.3
2,2018-01-21,01:00:00,2264,9.5
2,2018-01-21,02:00:00,2138,6.3
2,2018-01-21,03:00:00,1818,11.5
2,2018-01-21,04:00:00,1456,7.4
2,2018-01-21,05:00:00,1145,4.4
2,2018-01-21,06:00:00,868,3.6
2,2018-01-21,07:00:00,790,3.1
2,2018-01-21,08:00:00,603,2.6
2,2018-01-21,09:00:00,879,4.1
2,2018-01-21,10:00:00,1238,6.3
2,2018-01-21,11:00:00,1689,5.1
2,2018-01-21,12:00:00,2094,6.3
2,2018-01-21,13:00:00,2351,7.7
2,2018-01-21,14:00:00,2343,7
2,2018-01-21,15:00:00,2255,7
2,2018-01-21,16:00:00,2533,13.9
2,2018-01-21,17:00:00,2396,18.5
2,2018-01-21,18:00:00,2293,19.2
2,2018-01-21,19:00:00,2348,35.1
2,2018-01-21,20:00:00,2347,17.1
2,2018-01-21,21:00:00,2183,6.6
2,2018-01-21,22:00:00,1796,5.6
2,2018-01-21,23:00:00,1533,4.5
2,2018-01-22,00:00:00,1552,4.4
2,2018-01-22,01:00:00,989,4.1
2,2018-01-22,02:00:00,634,2.2
2,2018-01-22,03:00:00,343,1.4
2,2018-01-22,04:00:00,249,.9
2,2018-01-22,05:00:00,260,1.2
2,2018-01-22,06:00:00,554,2.4
2,2018-01-22,07:00:00,1319,7.2
2,2018-01-22,08:00:00,2311,9
2,2018-01-22,09:00:00,2486,40.7
2,2018-01-22,10:00:00,2646,8.3
2,2018-01-22,11:00:00,2440,11.9
2,2018-01-22,12:00:00,2541,9.5
2,2018-01-22,13:00:00,2338,41
2,2018-01-22,14:00:00,2466,44.6
2,2018-01-22,15:00:00,2450,42.1
2,2018-01-22,16:00:00,2429,44.2
2,2018-01-22,17:00:00,2184,52.4
2,2018-01-22,18:00:00,2401,46.3
2,2018-01-22,19:00:00,2425,58.5
2,2018-01-22,20:00:00,2576,38.7
2,2018-01-22,21:00:00,2635,9.9
2,2018-01-22,22:00:00,2066,5.9
2,2018-01-22,23:00:00,1980,6.3
2,2018-01-23,00:00:00,1889,5.3
2,2018-01-23,01:00:00,1162,5
2,2018-01-23,02:00:00,703,2.6
2,2018-01-23,03:00:00,450,1.5
2,2018-01-23,04:00:00,326,1.3
2,2018-01-23,05:00:00,276,1.1
2,2018-01-23,06:00:00,571,2.3
2,2018-01-23,07:00:00,1339,7.9
2,2018-01-23,08:00:00,2278,18.7
2,2018-01-23,09:00:00,2694,24
2,2018-01-23,10:00:00,2932,19.4
2,2018-01-23,11:00:00,2625,12.3
2,2018-01-23,12:00:00,2566,35.9
2,2018-01-23,13:00:00,2438,17.5
2,2018-01-23,14:00:00,2538,7.1
2,2018-01-23,15:00:00,2670,10.6
2,2018-01-23,16:00:00,2391,52.8
2,2018-01-23,17:00:00,2364,57.2
2,2018-01-23,18:00:00,2236,59.8
2,2018-01-23,19:00:00,2592,35.3
2,2018-01-23,20:00:00,2538,57.6
2,2018-01-23,21:00:00,2536,31.1
2,2018-01-23,22:00:00,2101,5.9
2,2018-01-23,23:00:00,1771,5
2,2018-01-24,00:00:00,1656,4.2
2,2018-01-24,01:00:00,1138,3.9
2,2018-01-24,02:00:00,647,2
2,2018-01-24,03:00:00,442,1.2
2,2018-01-24,04:00:00,251,.9
2,2018-01-24,05:00:00,247,1.1
2,2018-01-24,06:00:00,446,1.9
2,2018-01-24,07:00:00,1199,6.6
2,2018-01-24,08:00:00,1995,7.4
2,2018-01-24,09:00:00,2637,14.3
2,2018-01-24,10:00:00,2759,8.3
2,2018-01-24,11:00:00,2423,7.5
2,2018-01-24,12:00:00,2192,8.4
2,2018-01-24,13:00:00,2534,18.9
2,2018-01-24,14:00:00,2597,9.8
2,2018-01-24,15:00:00,2589,8.5
2,2018-01-24,16:00:00,2390,27.3
2,2018-01-24,17:00:00,1745,67.6
2,2018-01-24,18:00:00,1360,66.4
2,2018-01-24,19:00:00,1392,66.7
2,2018-01-24,20:00:00,1650,61.8
2,2018-01-24,21:00:00,2427,17.7
2,2018-01-24,22:00:00,2179,6
2,2018-01-24,23:00:00,1968,5.5
2,2018-01-25,00:00:00,1969,5.4
2,2018-01-25,01:00:00,1290,5.9
2,2018-01-25,02:00:00,869,3.1
2,2018-01-25,03:00:00,531,1.7
2,2018-01-25,04:00:00,294,1.2
2,2018-01-25,05:00:00,286,1.2
2,2018-01-25,06:00:00,508,2.3
2,2018-01-25,07:00:00,1085,5.6
2,2018-01-25,08:00:00,1888,6.5
2,2018-01-25,09:00:00,2417,16.6
2,2018-01-25,10:00:00,2664,7.2
2,2018-01-25,11:00:00,2315,25
2,2018-01-25,12:00:00,2274,22.8
2,2018-01-25,13:00:00,2488,14.9
2,2018-01-25,14:00:00,2387,26.8
2,2018-01-25,15:00:00,2442,18.1
2,2018-01-25,16:00:00,2404,18.8
2,2018-01-25,17:00:00,2499,13.4
2,2018-01-25,18:00:00,2378,14.1
2,2018-01-25,19:00:00,2384,44.8
2,2018-01-25,20:00:00,2357,59.6
2,2018-01-25,21:00:00,2295,36.9
2,2018-01-25,22:00:00,2009,9
2,2018-01-25,23:00:00,1893,8.6
2,2018-01-26,00:00:00,1996,8.8
2,2018-01-26,01:00:00,1578,14.6
2,2018-01-26,02:00:00,1153,8.2
2,2018-01-26,03:00:00,825,4.4
2,2018-01-26,04:00:00,437,2.1
2,2018-01-26,05:00:00,380,1.7
2,2018-01-26,06:00:00,575,3.2
2,2018-01-26,07:00:00,1120,10.1
2,2018-01-26,08:00:00,1792,8.3
2,2018-01-26,09:00:00,2393,9.4
2,2018-01-26,10:00:00,2568,16.4
2,2018-01-26,11:00:00,2376,13
2,2018-01-26,12:00:00,2508,13.5
2,2018-01-26,13:00:00,2423,29.5
2,2018-01-26,14:00:00,2153,12.2
2,2018-01-26,15:00:00,2565,14.1
2,2018-01-26,16:00:00,2545,13.3
2,2018-01-26,17:00:00,2519,19.2
2,2018-01-26,18:00:00,2645,13
2,2018-01-26,19:00:00,2692,14.4
2,2018-01-26,20:00:00,2876,19.1
2,2018-01-26,21:00:00,2403,19.8
2,2018-01-26,22:00:00,2050,22
2,2018-01-26,23:00:00,2015,8.2
2,2018-01-27,00:00:00,2008,9.8
2,2018-01-27,01:00:00,2001,8.6
2,2018-01-27,02:00:00,1488,11.4
2,2018-01-27,03:00:00,1275,9.2
2,2018-01-27,04:00:00,938,5.4
2,2018-01-27,05:00:00,784,3.9
2,2018-01-27,06:00:00,583,2.9
2,2018-01-27,07:00:00,704,3.9
2,2018-01-27,08:00:00,821,5.9
2,2018-01-27,09:00:00,1108,7.5
2,2018-01-27,10:00:00,1629,7.6
2,2018-01-27,11:00:00,1977,11.4
2,2018-01-27,12:00:00,2114,10
2,2018-01-27,13:00:00,2323,12.4
2,2018-01-27,14:00:00,2308,10.2
2,2018-01-27,15:00:00,2359,13.2
2,2018-01-27,16:00:00,2457,15.1
2,2018-01-27,17:00:00,2344,12.1
2,2018-01-27,18:00:00,2490,14.6
2,2018-01-27,19:00:00,2420,14.5
2,2018-01-27,20:00:00,2536,18.8
2,2018-01-27,21:00:00,2476,38.4
2,2018-01-27,22:00:00,1974,10.8
2,2018-01-27,23:00:00,1967,8.9
2,2018-01-28,00:00:00,2130,11.4
2,2018-01-28,01:00:00,1992,9
2,2018-01-28,02:00:00,1911,7.8
2,2018-01-28,03:00:00,1465,11.5
2,2018-01-28,04:00:00,1175,7.6
2,2018-01-28,05:00:00,897,4.6
2,2018-01-28,06:00:00,761,3.7
2,2018-01-28,07:00:00,594,3.2
2,2018-01-28,08:00:00,480,2.9
2,2018-01-28,09:00:00,679,4.4
2,2018-01-28,10:00:00,988,7.5
2,2018-01-28,11:00:00,1450,6.4
2,2018-01-28,12:00:00,1840,8.8
2,2018-01-28,13:00:00,2175,11.9
2,2018-01-28,14:00:00,2155,10.4
2,2018-01-28,15:00:00,2180,11
2,2018-01-28,16:00:00,2439,16
2,2018-01-28,17:00:00,2354,14.2
2,2018-01-28,18:00:00,2280,13.4
2,2018-01-28,19:00:00,2143,11.7
2,2018-01-28,20:00:00,2151,9.5
2,2018-01-28,21:00:00,1913,8.4
2,2018-01-28,22:00:00,1425,6.5
2,2018-01-28,23:00:00,1305,5.6
2,2018-01-29,00:00:00,1196,4.8
2,2018-01-29,01:00:00,775,4.4
2,2018-01-29,02:00:00,533,2.8
2,2018-01-29,03:00:00,293,1.6
2,2018-01-29,04:00:00,216,1.1
2,2018-01-29,05:00:00,216,1.1
2,2018-01-29,06:00:00,473,3.2
2,2018-01-29,07:00:00,1131,9.5
2,2018-01-29,08:00:00,1827,8.2
2,2018-01-29,09:00:00,2486,9.3
2,2018-01-29,10:00:00,2514,9.6
2,2018-01-29,11:00:00,2026,8.5
2,2018-01-29,12:00:00,2258,11.5
2,2018-01-29,13:00:00,2409,11
2,2018-01-29,14:00:00,2329,11.8
2,2018-01-29,15:00:00,2360,12.1
2,2018-01-29,16:00:00,2279,19.3
2,2018-01-29,17:00:00,2290,12.2
2,2018-01-29,18:00:00,2328,11
2,2018-01-29,19:00:00,2501,10.5
2,2018-01-29,20:00:00,2614,10.4
2,2018-01-29,21:00:00,2280,9.3
2,2018-01-29,22:00:00,1635,7
2,2018-01-29,23:00:00,1539,6.3
2,2018-01-30,00:00:00,1361,6.3
2,2018-01-30,01:00:00,851,5.5
2,2018-01-30,02:00:00,507,3.3
2,2018-01-30,03:00:00,353,2
2,2018-01-30,04:00:00,216,1.2
2,2018-01-30,05:00:00,211,1.1
2,2018-01-30,06:00:00,481,3
2,2018-01-30,07:00:00,1131,9.5
2,2018-01-30,08:00:00,1875,8.9
2,2018-01-30,09:00:00,2540,9.8
2,2018-01-30,10:00:00,2664,17.6
2,2018-01-30,11:00:00,2444,11.6
2,2018-01-30,12:00:00,2387,12
2,2018-01-30,13:00:00,2602,13.1
2,2018-01-30,14:00:00,2358,13.7
2,2018-01-30,15:00:00,2466,14.9
2,2018-01-30,16:00:00,2473,12.6
2,2018-01-30,17:00:00,2461,12.4
2,2018-01-30,18:00:00,2377,10
2,2018-01-30,19:00:00,2651,16.2
2,2018-01-30,20:00:00,2757,11.2
2,2018-01-30,21:00:00,2449,10.7
2,2018-01-30,22:00:00,1826,7.6
2,2018-01-30,23:00:00,1630,6.8
2,2018-01-31,00:00:00,1474,7.1
2,2018-01-31,01:00:00,995,7.2
2,2018-01-31,02:00:00,557,3.4
2,2018-01-31,03:00:00,335,1.8
2,2018-01-31,04:00:00,244,1.2
2,2018-01-31,05:00:00,230,1.1
2,2018-01-31,06:00:00,436,2.6
2,2018-01-31,07:00:00,1059,9
2,2018-01-31,08:00:00,1774,7.5
2,2018-01-31,09:00:00,2489,13.4
2,2018-01-31,10:00:00,2482,10.9
2,2018-01-31,11:00:00,2349,24.3
2,2018-01-31,12:00:00,2308,13.5
2,2018-01-31,13:00:00,2496,12.1
2,2018-01-31,14:00:00,2406,15.7
2,2018-01-31,15:00:00,2347,19.1
2,2018-01-31,16:00:00,2271,37.3
2,2018-01-31,17:00:00,2298,14.3
2,2018-01-31,18:00:00,2415,12.1
2,2018-01-31,19:00:00,2606,13.1
2,2018-01-31,20:00:00,2753,16.4
2,2018-01-31,21:00:00,2649,13.4
2,2018-01-31,22:00:00,1942,7.6
2,2018-01-31,23:00:00,1631,6.3
2,2018-02-01,00:00:00,1629,7.6
3,2018-01-01,01:00:00,1915,
3,2018-01-01,02:00:00,2111,
3,2018-01-01,03:00:00,1971,
3,2018-01-01,04:00:00,1864,
3,2018-01-01,05:00:00,1584,
3,2018-01-01,06:00:00,1416,
3,2018-01-01,07:00:00,1118,
3,2018-01-01,08:00:00,852,
3,2018-01-01,09:00:00,731,
3,2018-01-01,10:00:00,750,
3,2018-01-01,11:00:00,974,
3,2018-01-01,12:00:00,1470,
3,2018-01-01,13:00:00,1807,
3,2018-01-01,14:00:00,1782,
3,2018-01-01,15:00:00,1776,
3,2018-01-01,16:00:00,2103,
3,2018-01-01,17:00:00,2070,
3,2018-01-01,18:00:00,2054,
3,2018-01-01,19:00:00,2035,
3,2018-01-01,20:00:00,2032,
3,2018-01-01,21:00:00,1749,
3,2018-01-01,22:00:00,1683,
3,2018-01-01,23:00:00,1511,
3,2018-01-02,00:00:00,1274,
3,2018-01-02,01:00:00,813,
3,2018-01-02,02:00:00,540,
3,2018-01-02,03:00:00,287,
3,2018-01-02,04:00:00,198,
3,2018-01-02,05:00:00,196,
3,2018-01-02,06:00:00,441,
3,2018-01-02,07:00:00,922,
3,2018-01-02,08:00:00,1655,
3,2018-01-02,09:00:00,2036,
3,2018-01-02,10:00:00,2266,
3,2018-01-02,11:00:00,2088,
3,2018-01-02,12:00:00,2231,
3,2018-01-02,13:00:00,2364,
3,2018-01-02,14:00:00,2312,
3,2018-01-02,15:00:00,2282,
3,2018-01-02,16:00:00,2432,
3,2018-01-02,17:00:00,2338,
3,2018-01-02,18:00:00,2243,
3,2018-01-02,19:00:00,2495,
3,2018-01-02,20:00:00,2285,
3,2018-01-02,21:00:00,2053,
3,2018-01-02,22:00:00,1837,
3,2018-01-02,23:00:00,1671,
3,2018-01-03,00:00:00,1598,
3,2018-01-03,01:00:00,1029,
3,2018-01-03,02:00:00,735,
3,2018-01-03,03:00:00,460,
3,2018-01-03,04:00:00,279,
3,2018-01-03,05:00:00,288,
3,2018-01-03,06:00:00,525,
3,2018-01-03,07:00:00,989,
3,2018-01-03,08:00:00,1828,
3,2018-01-03,09:00:00,2315,
3,2018-01-03,10:00:00,2421,
3,2018-01-03,11:00:00,2277,
3,2018-01-03,12:00:00,2284,
3,2018-01-03,13:00:00,2399,
3,2018-01-03,14:00:00,2359,
3,2018-01-03,15:00:00,2392,
3,2018-01-03,16:00:00,2357,
3,2018-01-03,17:00:00,2322,
3,2018-01-03,18:00:00,2283,
3,2018-01-03,19:00:00,2511,
3,2018-01-03,20:00:00,2525,
3,2018-01-03,21:00:00,2402,
3,2018-01-03,22:00:00,1905,
3,2018-01-03,23:00:00,1954,
3,2018-01-04,00:00:00,1723,
3,2018-01-04,01:00:00,1146,
3,2018-01-04,02:00:00,761,
3,2018-01-04,03:00:00,428,
3,2018-01-04,04:00:00,280,
3,2018-01-04,05:00:00,319,
3,2018-01-04,06:00:00,484,
3,2018-01-04,07:00:00,983,
3,2018-01-04,08:00:00,1881,
3,2018-01-04,09:00:00,2232,
3,2018-01-04,10:00:00,2574,
3,2018-01-04,11:00:00,2300,
3,2018-01-04,12:00:00,2275,
3,2018-01-04,13:00:00,2371,
3,2018-01-04,14:00:00,2385,
3,2018-01-04,15:00:00,2366,
3,2018-01-04,16:00:00,2362,
3,2018-01-04,17:00:00,1925,
3,2018-01-04,18:00:00,1795,
3,2018-01-04,19:00:00,2229,
3,2018-01-04,20:00:00,2503,
3,2018-01-04,21:00:00,2488,
3,2018-01-04,22:00:00,2065,
3,2018-01-04,23:00:00,1921,
3,2018-01-05,00:00:00,1973,
3,2018-01-05,01:00:00,1433,
3,2018-01-05,02:00:00,1099,
3,2018-01-05,03:00:00,640,
3,2018-01-05,04:00:00,398,
3,2018-01-05,05:00:00,348,
3,2018-01-05,06:00:00,568,
3,2018-01-05,07:00:00,978,
3,2018-01-05,08:00:00,1907,
3,2018-01-05,09:00:00,2287,
3,2018-01-05,10:00:00,2465,
3,2018-01-05,11:00:00,2413,
3,2018-01-05,12:00:00,2417,
3,2018-01-05,13:00:00,2366,
3,2018-01-05,14:00:00,2434,
3,2018-01-05,15:00:00,2626,
3,2018-01-05,16:00:00,2225,
3,2018-01-05,17:00:00,2153,
3,2018-01-05,18:00:00,2377,
3,2018-01-05,19:00:00,2549,
3,2018-01-05,20:00:00,2652,
3,2018-01-05,21:00:00,2659,
3,2018-01-05,22:00:00,2312,
3,2018-01-05,23:00:00,2172,
3,2018-01-06,00:00:00,2090,
3,2018-01-06,01:00:00,1940,
3,2018-01-06,02:00:00,1549,
3,2018-01-06,03:00:00,1292,
3,2018-01-06,04:00:00,857,
3,2018-01-06,05:00:00,701,
3,2018-01-06,06:00:00,700,
3,2018-01-06,07:00:00,703,
3,2018-01-06,08:00:00,795,
3,2018-01-06,09:00:00,1168,
3,2018-01-06,10:00:00,1632,
3,2018-01-06,11:00:00,2165,
3,2018-01-06,12:00:00,2271,
3,2018-01-06,13:00:00,2508,
3,2018-01-06,14:00:00,2457,
3,2018-01-06,15:00:00,2437,
3,2018-01-06,16:00:00,2527,
3,2018-01-06,17:00:00,2443,
3,2018-01-06,18:00:00,2405,
3,2018-01-06,19:00:00,2310,
3,2018-01-06,20:00:00,2537,
3,2018-01-06,21:00:00,2451,
3,2018-01-06,22:00:00,2256,
3,2018-01-06,23:00:00,2038,
3,2018-01-07,00:00:00,2095,
3,2018-01-07,01:00:00,2023,
3,2018-01-07,02:00:00,1926,
3,2018-01-07,03:00:00,1493,
3,2018-01-07,04:00:00,1094,
3,2018-01-07,05:00:00,910,
3,2018-01-07,06:00:00,722,
3,2018-01-07,07:00:00,689,
3,2018-01-07,08:00:00,570,
3,2018-01-07,09:00:00,668,
3,2018-01-07,10:00:00,1071,
3,2018-01-07,11:00:00,1333,
3,2018-01-07,12:00:00,1736,
3,2018-01-07,13:00:00,2274,
3,2018-01-07,14:00:00,2190,
3,2018-01-07,15:00:00,2257,
3,2018-01-07,16:00:00,2307,
3,2018-01-07,17:00:00,2369,
3,2018-01-07,18:00:00,2155,
3,2018-01-07,19:00:00,2207,
3,2018-01-07,20:00:00,2284,
3,2018-01-07,21:00:00,1799,
3,2018-01-07,22:00:00,1563,
3,2018-01-07,23:00:00,1387,
3,2018-01-08,00:00:00,1176,
3,2018-01-08,01:00:00,793,
3,2018-01-08,02:00:00,485,
3,2018-01-08,03:00:00,293,
3,2018-01-08,04:00:00,192,
3,2018-01-08,05:00:00,240,
3,2018-01-08,06:00:00,522,
3,2018-01-08,07:00:00,1215,
3,2018-01-08,08:00:00,2363,
3,2018-01-08,09:00:00,2673,
3,2018-01-08,10:00:00,2724,
3,2018-01-08,11:00:00,2344,
3,2018-01-08,12:00:00,2291,
3,2018-01-08,13:00:00,2406,
3,2018-01-08,14:00:00,2452,
3,2018-01-08,15:00:00,2449,
3,2018-01-08,16:00:00,2352,
3,2018-01-08,17:00:00,2275,
3,2018-01-08,18:00:00,2360,
3,2018-01-08,19:00:00,2790,
3,2018-01-08,20:00:00,2756,
3,2018-01-08,21:00:00,2303,
3,2018-01-08,22:00:00,1651,
3,2018-01-08,23:00:00,1454,
3,2018-01-09,00:00:00,1288,
3,2018-01-09,01:00:00,957,
3,2018-01-09,02:00:00,557,
3,2018-01-09,03:00:00,383,
3,2018-01-09,04:00:00,239,
3,2018-01-09,05:00:00,249,
3,2018-01-09,06:00:00,513,
3,2018-01-09,07:00:00,1247,
3,2018-01-09,08:00:00,2302,
3,2018-01-09,09:00:00,2721,
3,2018-01-09,10:00:00,2875,
3,2018-01-09,11:00:00,2482,
3,2018-01-09,12:00:00,2441,
3,2018-01-09,13:00:00,2667,
3,2018-01-09,14:00:00,2453,
3,2018-01-09,15:00:00,2555,
3,2018-01-09,16:00:00,2464,
3,2018-01-09,17:00:00,2213,
3,2018-01-09,18:00:00,2149,
3,2018-01-09,19:00:00,2467,
3,2018-01-09,20:00:00,2744,
3,2018-01-09,21:00:00,2569,
3,2018-01-09,22:00:00,1999,
3,2018-01-09,23:00:00,1924,
3,2018-01-10,00:00:00,1906,
3,2018-01-10,01:00:00,1158,
3,2018-01-10,02:00:00,686,
3,2018-01-10,03:00:00,436,
3,2018-01-10,04:00:00,289,
3,2018-01-10,05:00:00,295,
3,2018-01-10,06:00:00,544,
3,2018-01-10,07:00:00,1232,
3,2018-01-10,08:00:00,2105,
3,2018-01-10,09:00:00,2529,
3,2018-01-10,10:00:00,2808,
3,2018-01-10,11:00:00,2457,
3,2018-01-10,12:00:00,2491,
3,2018-01-10,13:00:00,2649,
3,2018-01-10,14:00:00,2581,
3,2018-01-10,15:00:00,2576,
3,2018-01-10,16:00:00,2409,
3,2018-01-10,17:00:00,2301,
3,2018-01-10,18:00:00,2239,
3,2018-01-10,19:00:00,2449,
3,2018-01-10,20:00:00,2688,
3,2018-01-10,21:00:00,2594,
3,2018-01-10,22:00:00,2124,
3,2018-01-10,23:00:00,1996,
3,2018-01-11,00:00:00,1934,
3,2018-01-11,01:00:00,1348,
3,2018-01-11,02:00:00,817,
3,2018-01-11,03:00:00,512,
3,2018-01-11,04:00:00,315,
3,2018-01-11,05:00:00,291,
3,2018-01-11,06:00:00,587,
3,2018-01-11,07:00:00,1344,
3,2018-01-11,08:00:00,2227,
3,2018-01-11,09:00:00,2586,
3,2018-01-11,10:00:00,2817,
3,2018-01-11,11:00:00,2508,
3,2018-01-11,12:00:00,2592,
3,2018-01-11,13:00:00,2648,
3,2018-01-11,14:00:00,2554,
3,2018-01-11,15:00:00,2551,
3,2018-01-11,16:00:00,2505,
3,2018-01-11,17:00:00,2044,
3,2018-01-11,18:00:00,2224,
3,2018-01-11,19:00:00,2477,
3,2018-01-11,20:00:00,2869,
3,2018-01-11,21:00:00,2648,
3,2018-01-11,22:00:00,2197,
3,2018-01-11,23:00:00,2080,
3,2018-01-12,00:00:00,2171,
3,2018-01-12,01:00:00,1654,
3,2018-01-12,02:00:00,1180,
3,2018-01-12,03:00:00,758,
3,2018-01-12,04:00:00,440,
3,2018-01-12,05:00:00,352,
3,2018-01-12,06:00:00,614,
3,2018-01-12,07:00:00,1125,
3,2018-01-12,08:00:00,2211,
3,2018-01-12,09:00:00,2532,
3,2018-01-12,10:00:00,2648,
3,2018-01-12,11:00:00,2422,
3,2018-01-12,12:00:00,2486,
3,2018-01-12,13:00:00,2651,
3,2018-01-12,14:00:00,2594,
3,2018-01-12,15:00:00,2499,
3,2018-01-12,16:00:00,2488,
3,2018-01-12,17:00:00,2296,
3,2018-01-12,18:00:00,2295,
3,2018-01-12,19:00:00,2542,
3,2018-01-12,20:00:00,2745,
3,2018-01-12,21:00:00,2797,
3,2018-01-12,22:00:00,2387,
3,2018-01-12,23:00:00,2080,
3,2018-01-13,00:00:00,2198,
3,2018-01-13,01:00:00,2114,
3,2018-01-13,02:00:00,1619,
3,2018-01-13,03:00:00,1437,
3,2018-01-13,04:00:00,1028,
3,2018-01-13,05:00:00,854,
3,2018-01-13,06:00:00,685,
3,2018-01-13,07:00:00,737,
3,2018-01-13,08:00:00,859,
3,2018-01-13,09:00:00,1274,
3,2018-01-13,10:00:00,1773,
3,2018-01-13,11:00:00,2066,
3,2018-01-13,12:00:00,2398,
3,2018-01-13,13:00:00,2410,
3,2018-01-13,14:00:00,2398,
3,2018-01-13,15:00:00,2437,
3,2018-01-13,16:00:00,2547,
3,2018-01-13,17:00:00,2548,
3,2018-01-13,18:00:00,2429,
3,2018-01-13,19:00:00,2370,
3,2018-01-13,20:00:00,2484,
3,2018-01-13,21:00:00,2540,
3,2018-01-13,22:00:00,2297,
3,2018-01-13,23:00:00,2206,
3,2018-01-14,00:00:00,2253,
3,2018-01-14,01:00:00,2180,
3,2018-01-14,02:00:00,2205,
3,2018-01-14,03:00:00,1729,
3,2018-01-14,04:00:00,1270,
3,2018-01-14,05:00:00,1051,
3,2018-01-14,06:00:00,816,
3,2018-01-14,07:00:00,629,
3,2018-01-14,08:00:00,600,
3,2018-01-14,09:00:00,831,
3,2018-01-14,10:00:00,1147,
3,2018-01-14,11:00:00,1602,
3,2018-01-14,12:00:00,1974,
3,2018-01-14,13:00:00,2328,
3,2018-01-14,14:00:00,2394,
3,2018-01-14,15:00:00,2393,
3,2018-01-14,16:00:00,2410,
3,2018-01-14,17:00:00,2498,
3,2018-01-14,18:00:00,2372,
3,2018-01-14,19:00:00,2318,
3,2018-01-14,20:00:00,2264,
3,2018-01-14,21:00:00,2105,
3,2018-01-14,22:00:00,1675,
3,2018-01-14,23:00:00,1437,
3,2018-01-15,00:00:00,1292,
3,2018-01-15,01:00:00,880,
3,2018-01-15,02:00:00,635,
3,2018-01-15,03:00:00,393,
3,2018-01-15,04:00:00,236,
3,2018-01-15,05:00:00,209,
3,2018-01-15,06:00:00,570,
3,2018-01-15,07:00:00,1351,
3,2018-01-15,08:00:00,2279,
3,2018-01-15,09:00:00,2791,
3,2018-01-15,10:00:00,2805,
3,2018-01-15,11:00:00,2483,
3,2018-01-15,12:00:00,2351,
3,2018-01-15,13:00:00,2460,
3,2018-01-15,14:00:00,2272,
3,2018-01-15,15:00:00,2209,
3,2018-01-15,16:00:00,2251,
3,2018-01-15,17:00:00,1822,
3,2018-01-15,18:00:00,1922,
3,2018-01-15,19:00:00,2490,
3,2018-01-15,20:00:00,2717,
3,2018-01-15,21:00:00,2392,
3,2018-01-15,22:00:00,1988,
3,2018-01-15,23:00:00,1806,
3,2018-01-16,00:00:00,1640,
3,2018-01-16,01:00:00,1007,
3,2018-01-16,02:00:00,600,
3,2018-01-16,03:00:00,407,
3,2018-01-16,04:00:00,245,
3,2018-01-16,05:00:00,224,
3,2018-01-16,06:00:00,570,
3,2018-01-16,07:00:00,1323,
3,2018-01-16,08:00:00,2267,
3,2018-01-16,09:00:00,2790,
3,2018-01-16,10:00:00,2833,
3,2018-01-16,11:00:00,2454,
3,2018-01-16,12:00:00,2438,
3,2018-01-16,13:00:00,2573,
3,2018-01-16,14:00:00,2407,
3,2018-01-16,15:00:00,2491,
3,2018-01-16,16:00:00,2227,
3,2018-01-16,17:00:00,1923,
3,2018-01-16,18:00:00,2007,
3,2018-01-16,19:00:00,2573,
3,2018-01-16,20:00:00,2898,
3,2018-01-16,21:00:00,2540,
3,2018-01-16,22:00:00,2208,
3,2018-01-16,23:00:00,2146,
3,2018-01-17,00:00:00,2083,
3,2018-01-17,01:00:00,1409,
3,2018-01-17,02:00:00,884,
3,2018-01-17,03:00:00,496,
3,2018-01-17,04:00:00,333,
3,2018-01-17,05:00:00,297,
3,2018-01-17,06:00:00,584,
3,2018-01-17,07:00:00,1315,
3,2018-01-17,08:00:00,2180,
3,2018-01-17,09:00:00,2717,
3,2018-01-17,10:00:00,2830,
3,2018-01-17,11:00:00,2575,
3,2018-01-17,12:00:00,2383,
3,2018-01-17,13:00:00,2557,
3,2018-01-17,14:00:00,2523,
3,2018-01-17,15:00:00,2448,
3,2018-01-17,16:00:00,2177,
3,2018-01-17,17:00:00,1805,
3,2018-01-17,18:00:00,1866,
3,2018-01-17,19:00:00,1941,
3,2018-01-17,20:00:00,2578,
3,2018-01-17,21:00:00,2685,
3,2018-01-17,22:00:00,2069,
3,2018-01-17,23:00:00,1864,
3,2018-01-18,00:00:00,1956,
3,2018-01-18,01:00:00,1513,
3,2018-01-18,02:00:00,991,
3,2018-01-18,03:00:00,586,
3,2018-01-18,04:00:00,340,
3,2018-01-18,05:00:00,295,
3,2018-01-18,06:00:00,601,
3,2018-01-18,07:00:00,1355,
3,2018-01-18,08:00:00,2255,
3,2018-01-18,09:00:00,2751,
3,2018-01-18,10:00:00,2845,
3,2018-01-18,11:00:00,2370,
3,2018-01-18,12:00:00,2009,
3,2018-01-18,13:00:00,2001,
3,2018-01-18,14:00:00,2327,
3,2018-01-18,15:00:00,2556,
3,2018-01-18,16:00:00,2167,
3,2018-01-18,17:00:00,1823,
3,2018-01-18,18:00:00,1368,
3,2018-01-18,19:00:00,2105,
3,2018-01-18,20:00:00,2347,
3,2018-01-18,21:00:00,2360,
3,2018-01-18,22:00:00,2273,
3,2018-01-18,23:00:00,2167,
3,2018-01-19,00:00:00,2239,
3,2018-01-19,01:00:00,1758,
3,2018-01-19,02:00:00,1443,
3,2018-01-19,03:00:00,895,
3,2018-01-19,04:00:00,495,
3,2018-01-19,05:00:00,478,
3,2018-01-19,06:00:00,703,
3,2018-01-19,07:00:00,1198,
3,2018-01-19,08:00:00,2187,
3,2018-01-19,09:00:00,2677,
3,2018-01-19,10:00:00,2798,
3,2018-01-19,11:00:00,2469,
3,2018-01-19,12:00:00,2508,
3,2018-01-19,13:00:00,2458,
3,2018-01-19,14:00:00,2437,
3,2018-01-19,15:00:00,2396,
3,2018-01-19,16:00:00,2361,
3,2018-01-19,17:00:00,1592,
3,2018-01-19,18:00:00,1791,
3,2018-01-19,19:00:00,1945,
3,2018-01-19,20:00:00,2390,
3,2018-01-19,21:00:00,2592,
3,2018-01-19,22:00:00,2532,
3,2018-01-19,23:00:00,2369,
3,2018-01-20,00:00:00,2277,
3,2018-01-20,01:00:00,2307,
3,2018-01-20,02:00:00,1684,
3,2018-01-20,03:00:00,1520,
3,2018-01-20,04:00:00,990,
3,2018-01-20,05:00:00,849,
3,2018-01-20,06:00:00,686,
3,2018-01-20,07:00:00,711,
3,2018-01-20,08:00:00,931,
3,2018-01-20,09:00:00,1354,
3,2018-01-20,10:00:00,1969,
3,2018-01-20,11:00:00,2263,
3,2018-01-20,12:00:00,2289,
3,2018-01-20,13:00:00,2452,
3,2018-01-20,14:00:00,2402,
3,2018-01-20,15:00:00,2357,
3,2018-01-20,16:00:00,2507,
3,2018-01-20,17:00:00,2439,
3,2018-01-20,18:00:00,2346,
3,2018-01-20,19:00:00,2219,
3,2018-01-20,20:00:00,2477,
3,2018-01-20,21:00:00,2393,
3,2018-01-20,22:00:00,2229,
3,2018-01-20,23:00:00,2228,
3,2018-01-21,00:00:00,2314,
3,2018-01-21,01:00:00,2264,
3,2018-01-21,02:00:00,2138,
3,2018-01-21,03:00:00,1818,
3,2018-01-21,04:00:00,1456,
3,2018-01-21,05:00:00,1145,
3,2018-01-21,06:00:00,868,
3,2018-01-21,07:00:00,790,
3,2018-01-21,08:00:00,603,
3,2018-01-21,09:00:00,879,
3,2018-01-21,10:00:00,1238,
3,2018-01-21,11:00:00,1689,
3,2018-01-21,12:00:00,2094,
3,2018-01-21,13:00:00,2351,
3,2018-01-21,14:00:00,2343,
3,2018-01-21,15:00:00,2255,
3,2018-01-21,16:00:00,2533,
3,2018-01-21,17:00:00,2396,
3,2018-01-21,18:00:00,2293,
3,2018-01-21,19:00:00,2348,
3,2018-01-21,20:00:00,2347,
3,2018-01-21,21:00:00,2183,
3,2018-01-21,22:00:00,1796,
3,2018-01-21,23:00:00,1533,
3,2018-01-22,00:00:00,1552,
3,2018-01-22,01:00:00,989,
3,2018-01-22,02:00:00,634,
3,2018-01-22,03:00:00,343,
3,2018-01-22,04:00:00,249,
3,2018-01-22,05:00:00,260,
3,2018-01-22,06:00:00,554,
3,2018-01-22,07:00:00,1319,
3,2018-01-22,08:00:00,2311,
3,2018-01-22,09:00:00,2486,
3,2018-01-22,10:00:00,2646,
3,2018-01-22,11:00:00,2440,
3,2018-01-22,12:00:00,2541,
3,2018-01-22,13:00:00,2338,
3,2018-01-22,14:00:00,2466,
3,2018-01-22,15:00:00,2450,
3,2018-01-22,16:00:00,2429,
3,2018-01-22,17:00:00,2184,
3,2018-01-22,18:00:00,2401,
3,2018-01-22,19:00:00,2425,
3,2018-01-22,20:00:00,2576,
3,2018-01-22,21:00:00,2635,
3,2018-01-22,22:00:00,2066,
3,2018-01-22,23:00:00,1980,
3,2018-01-23,00:00:00,1889,
3,2018-01-23,01:00:00,1162,
3,2018-01-23,02:00:00,703,
3,2018-01-23,03:00:00,450,
3,2018-01-23,04:00:00,326,
3,2018-01-23,05:00:00,276,
3,2018-01-23,06:00:00,571,
3,2018-01-23,07:00:00,1339,
3,2018-01-23,08:00:00,2278,
3,2018-01-23,09:00:00,2694,
3,2018-01-23,10:00:00,2932,
3,2018-01-23,11:00:00,2625,
3,2018-01-23,12:00:00,2566,
3,2018-01-23,13:00:00,2438,
3,2018-01-23,14:00:00,2538,
3,2018-01-23,15:00:00,2670,
3,2018-01-23,16:00:00,2391,
3,2018-01-23,17:00:00,2364,
3,2018-01-23,18:00:00,2236,
3,2018-01-23,19:00:00,2592,
3,2018-01-23,20:00:00,2538,
3,2018-01-23,21:00:00,2536,
3,2018-01-23,22:00:00,2101,
3,2018-01-23,23:00:00,1771,
3,2018-01-24,00:00:00,1656,
3,2018-01-24,01:00:00,1138,
3,2018-01-24,02:00:00,647,
3,2018-01-24,03:00:00,442,
3,2018-01-24,04:00:00,251,
3,2018-01-24,05:00:00,247,
3,2018-01-24,06:00:00,446,
3,2018-01-24,07:00:00,1199,
3,2018-01-24,08:00:00,1995,
3,2018-01-24,09:00:00,2637,
3,2018-01-24,10:00:00,2759,
3,2018-01-24,11:00:00,2423,
3,2018-01-24,12:00:00,2192,
3,2018-01-24,13:00:00,2534,
3,2018-01-24,14:00:00,2597,
3,2018-01-24,15:00:00,2589,
3,2018-01-24,16:00:00,2390,
3,2018-01-24,17:00:00,1745,
3,2018-01-24,18:00:00,1360,
3,2018-01-24,19:00:00,1392,
3,2018-01-24,20:00:00,1650,
3,2018-01-24,21:00:00,2427,
3,2018-01-24,22:00:00,2179,
3,2018-01-24,23:00:00,1968,
3,2018-01-25,00:00:00,1969,
3,2018-01-25,01:00:00,1290,
3,2018-01-25,02:00:00,869,
3,2018-01-25,03:00:00,531,
3,2018-01-25,04:00:00,294,
3,2018-01-25,05:00:00,286,
3,2018-01-25,06:00:00,508,
3,2018-01-25,07:00:00,1085,
3,2018-01-25,08:00:00,1888,
3,2018-01-25,09:00:00,2417,
3,2018-01-25,10:00:00,2664,
3,2018-01-25,11:00:00,2315,
3,2018-01-25,12:00:00,2274,
3,2018-01-25,13:00:00,2488,
3,2018-01-25,14:00:00,2387,
3,2018-01-25,15:00:00,2442,
3,2018-01-25,16:00:00,2404,
3,2018-01-25,17:00:00,2499,
3,2018-01-25,18:00:00,2378,
3,2018-01-25,19:00:00,2384,
3,2018-01-25,20:00:00,2357,
3,2018-01-25,21:00:00,2295,
3,2018-01-25,22:00:00,2009,
3,2018-01-25,23:00:00,1893,
3,2018-01-26,00:00:00,1996,
3,2018-01-26,01:00:00,1578,
3,2018-01-26,02:00:00,1153,
3,2018-01-26,03:00:00,825,
3,2018-01-26,04:00:00,437,
3,2018-01-26,05:00:00,380,
3,2018-01-26,06:00:00,575,
3,2018-01-26,07:00:00,1120,
3,2018-01-26,08:00:00,1792,
3,2018-01-26,09:00:00,2393,
3,2018-01-26,10:00:00,2568,
3,2018-01-26,11:00:00,2376,
3,2018-01-26,12:00:00,2508,
3,2018-01-26,13:00:00,2423,
3,2018-01-26,14:00:00,2153,
3,2018-01-26,15:00:00,2565,
3,2018-01-26,16:00:00,2545,
3,2018-01-26,17:00:00,2519,
3,2018-01-26,18:00:00,2645,
3,2018-01-26,19:00:00,2692,
3,2018-01-26,20:00:00,2876,
3,2018-01-26,21:00:00,2403,
3,2018-01-26,22:00:00,2050,
3,2018-01-26,23:00:00,2015,
3,2018-01-27,00:00:00,2008,
3,2018-01-27,01:00:00,2001,
3,2018-01-27,02:00:00,1488,
3,2018-01-27,03:00:00,1275,
3,2018-01-27,04:00:00,938,
3,2018-01-27,05:00:00,784,
3,2018-01-27,06:00:00,583,
3,2018-01-27,07:00:00,704,
3,2018-01-27,08:00:00,821,
3,2018-01-27,09:00:00,1108,
3,2018-01-27,10:00:00,1629,
3,2018-01-27,11:00:00,1977,
3,2018-01-27,12:00:00,2114,
3,2018-01-27,13:00:00,2323,
3,2018-01-27,14:00:00,2308,
3,2018-01-27,15:00:00,2359,
3,2018-01-27,16:00:00,2457,
3,2018-01-27,17:00:00,2344,
3,2018-01-27,18:00:00,2490,
3,2018-01-27,19:00:00,2420,
3,2018-01-27,20:00:00,2536,
3,2018-01-27,21:00:00,2476,
3,2018-01-27,22:00:00,1974,
3,2018-01-27,23:00:00,1967,
3,2018-01-28,00:00:00,2130,
3,2018-01-28,01:00:00,1992,
3,2018-01-28,02:00:00,1911,
3,2018-01-28,03:00:00,1465,
3,2018-01-28,04:00:00,1175,
3,2018-01-28,05:00:00,897,
3,2018-01-28,06:00:00,761,
3,2018-01-28,07:00:00,594,
3,2018-01-28,08:00:00,480,
3,2018-01-28,09:00:00,679,
3,2018-01-28,10:00:00,988,
3,2018-01-28,11:00:00,1450,
3,2018-01-28,12:00:00,1840,
3,2018-01-28,13:00:00,2175,
3,2018-01-28,14:00:00,2155,
3,2018-01-28,15:00:00,2180,
3,2018-01-28,16:00:00,2439,
3,2018-01-28,17:00:00,2354,
3,2018-01-28,18:00:00,2280,
3,2018-01-28,19:00:00,2143,
3,2018-01-28,20:00:00,2151,
3,2018-01-28,21:00:00,1913,
3,2018-01-28,22:00:00,1425,
3,2018-01-28,23:00:00,1305,
3,2018-01-29,00:00:00,1196,
3,2018-01-29,01:00:00,775,
3,2018-01-29,02:00:00,533,
3,2018-01-29,03:00:00,293,
3,2018-01-29,04:00:00,216,
3,2018-01-29,05:00:00,216,
3,2018-01-29,06:00:00,473,
3,2018-01-29,07:00:00,1131,
3,2018-01-29,08:00:00,1827,
3,2018-01-29,09:00:00,2486,
3,2018-01-29,10:00:00,2514,
3,2018-01-29,11:00:00,2026,
3,2018-01-29,12:00:00,2258,
3,2018-01-29,13:00:00,2409,
3,2018-01-29,14:00:00,2329,
3,2018-01-29,15:00:00,2360,
3,2018-01-29,16:00:00,2279,
3,2018-01-29,17:00:00,2290,
3,2018-01-29,18:00:00,2328,
3,2018-01-29,19:00:00,2501,
3,2018-01-29,20:00:00,2614,
3,2018-01-29,21:00:00,2280,
3,2018-01-29,22:00:00,1635,
3,2018-01-29,23:00:00,1539,
3,2018-01-30,00:00:00,1361,
3,2018-01-30,01:00:00,851,
3,2018-01-30,02:00:00,507,
3,2018-01-30,03:00:00,353,
3,2018-01-30,04:00:00,216,
3,2018-01-30,05:00:00,211,
3,2018-01-30,06:00:00,481,
3,2018-01-30,07:00:00,1131,
3,2018-01-30,08:00:00,1875,
3,2018-01-30,09:00:00,2540,
3,2018-01-30,10:00:00,2664,
3,2018-01-30,11:00:00,2444,
3,2018-01-30,12:00:00,2387,
3,2018-01-30,13:00:00,2602,
3,2018-01-30,14:00:00,2358,
3,2018-01-30,15:00:00,2466,
3,2018-01-30,16:00:00,2473,
3,2018-01-30,17:00:00,2461,
3,2018-01-30,18:00:00,2377,
3,2018-01-30,19:00:00,2651,
3,2018-01-30,20:00:00,2757,
3,2018-01-30,21:00:00,2449,
3,2018-01-30,22:00:00,1826,
3,2018-01-30,23:00:00,1630,
3,2018-01-31,00:00:00,1474,
3,2018-01-31,01:00:00,995,
3,2018-01-31,02:00:00,557,
3,2018-01-31,03:00:00,335,
3,2018-01-31,04:00:00,244,
3,2018-01-31,05:00:00,230,
3,2018-01-31,06:00:00,436,
3,2018-01-31,07:00:00,1059,
3,2018-01-31,08:00:00,1774,
3,2018-01-31,09:00:00,2489,
3,2018-01-31,10:00:00,2482,
3,2018-01-31,11:00:00,2349,
3,2018-01-31,12:00:00,2308,
3,2018-01-31,13:00:00,2496,
3,2018-01-31,14:00:00,2406,
3,2018-01-31,15:00:00,2347,
3,2018-01-31,16:00:00,2271,
3,2018-01-31,17:00:00,2298,
3,2018-01-31,18:00:00,2415,
3,2018-01-31,19:00:00,2606,
3,2018-01-31,20:00:00,2753,
3,2018-01-31,21:00:00,2649,
3,2018-01-31,22:00:00,1942,
3,2018-01-31,23:00:00,1631,
3,2018-02-01,00:00:00,1629,
4,2018-01-01,01:00:00,1915,33.5
4,2018-01-01,02:00:00,2111,52.9
4,2018-01-01,03:00:00,1971,39.6
4,2018-01-01,04:00:00,1864,9
4,2018-01-01,05:00:00,1584,7.7
4,2018-01-01,06:00:00,1416,6.6
4,2018-01-01,07:00:00,1118,4.9
4,2018-01-01,08:00:00,852,3
4,2018-01-01,09:00:00,731,2.8
4,2018-01-01,10:00:00,750,3.3
4,2018-01-01,11:00:00,974,4.5
4,2018-01-01,12:00:00,1470,7.3
4,2018-01-01,13:00:00,1807,8.6
4,2018-01-01,14:00:00,1782,7.9
4,2018-01-01,15:00:00,1776,7.3
4,2018-01-01,16:00:00,2103,12.9
4,2018-01-01,17:00:00,2070,12.6
4,2018-01-01,18:00:00,2054,8.9
4,2018-01-01,19:00:00,2035,9.2
4,2018-01-01,20:00:00,2032,7.9
4,2018-01-01,21:00:00,1749,7
4,2018-01-01,22:00:00,1683,6.5
4,2018-01-01,23:00:00,1511,5.8
4,2018-01-02,00:00:00,1274,4.5
4,2018-01-02,01:00:00,813,3.2
4,2018-01-02,02:00:00,540,2.3
4,2018-01-02,03:00:00,287,1.1
4,2018-01-02,04:00:00,198,.9
4,2018-01-02,05:00:00,196,.9
4,2018-01-02,06:00:00,441,1.9
4,2018-01-02,07:00:00,922,3.7
4,2018-01-02,08:00:00,1655,5.5
4,2018-01-02,09:00:00,2036,7.9
4,2018-01-02,10:00:00,2266,8
4,2018-01-02,11:00:00,2088,8.6
4,2018-01-02,12:00:00,2231,10
4,2018-01-02,13:00:00,2364,17
4,2018-01-02,14:00:00,2312,10.5
4,2018-01-02,15:00:00,2282,11.8
4,2018-01-02,16:00:00,2432,51.8
4,2018-01-02,17:00:00,2338,47.4
4,2018-01-02,18:00:00,2243,52.8
4,2018-01-02,19:00:00,2495,48.2
4,2018-01-02,20:00:00,2285,17.3
4,2018-01-02,21:00:00,2053,6.8
4,2018-01-02,22:00:00,1837,6.4
4,2018-01-02,23:00:00,1671,5.8
4,2018-01-03,00:00:00,1598,5.6
4,2018-01-03,01:00:00,1029,4.6
4,2018-01-03,02:00:00,735,3.3
4,2018-01-03,03:00:00,460,1.8
4,2018-01-03,04:00:00,279,1.2
4,2018-01-03,05:00:00,288,1.2
4,2018-01-03,06:00:00,525,2.3
4,2018-01-03,07:00:00,989,3.6
4,2018-01-03,08:00:00,1828,6.4
4,2018-01-03,09:00:00,2315,11.3
4,2018-01-03,10:00:00,2421,8.1
4,2018-01-03,11:00:00,2277,10.7
4,2018-01-03,12:00:00,2284,10.2
4,2018-01-03,13:00:00,2399,11.7
4,2018-01-03,14:00:00,2359,12.3
4,2018-01-03,15:00:00,2392,18.7
4,2018-01-03,16:00:00,2357,38.6
4,2018-01-03,17:00:00,2322,44.2
4,2018-01-03,18:00:00,2283,51.1
4,2018-01-03,19:00:00,2511,50.6
4,2018-01-03,20:00:00,2525,45.9
4,2018-01-03,21:00:00,2402,11.2
4,2018-01-03,22:00:00,1905,7.2
4,2018-01-03,23:00:00,1954,7.6
4,2018-01-04,00:00:00,1723,6
4,2018-01-04,01:00:00,1146,4.1
4,2018-01-04,02:00:00,761,2.8
4,2018-01-04,03:00:00,428,1.7
4,2018-01-04,04:00:00,280,1.1
4,2018-01-04,05:00:00,319,1.2
4,2018-01-04,06:00:00,484,2.3
4,2018-01-04,07:00:00,983,3.9
4,2018-01-04,08:00:00,1881,6.9
4,2018-01-04,09:00:00,2232,27.2
4,2018-01-04,10:00:00,2574,11.1
4,2018-01-04,11:00:00,2300,15.6
4,2018-01-04,12:00:00,2275,28.6
4,2018-01-04,13:00:00,2371,24.6
4,2018-01-04,14:00:00,2385,17.7
4,2018-01-04,15:00:00,2366,38.6
4,2018-01-04,16:00:00,2362,49.3
4,2018-01-04,17:00:00,1925,48.8
4,2018-01-04,18:00:00,1795,50.4
4,2018-01-04,19:00:00,2229,50.1
4,2018-01-04,20:00:00,2503,42.2
4,2018-01-04,21:00:00,2488,23.1
4,2018-01-04,22:00:00,2065,7
4,2018-01-04,23:00:00,1921,7.1
4,2018-01-05,00:00:00,1973,8.1
4,2018-01-05,01:00:00,1433,5.9
4,2018-01-05,02:00:00,1099,4.5
4,2018-01-05,03:00:00,640,2.9
4,2018-01-05,04:00:00,398,1.6
4,2018-01-05,05:00:00,348,1.5
4,2018-01-05,06:00:00,568,2.3
4,2018-01-05,07:00:00,978,3.9
4,2018-01-05,08:00:00,1907,6.7
4,2018-01-05,09:00:00,2287,11.2
4,2018-01-05,10:00:00,2465,11.3
4,2018-01-05,11:00:00,2413,20.2
4,2018-01-05,12:00:00,2417,17.9
4,2018-01-05,13:00:00,2366,23.7
4,2018-01-05,14:00:00,2434,61
4,2018-01-05,15:00:00,2626,59.7
4,2018-01-05,16:00:00,2225,56.2
4,2018-01-05,17:00:00,2153,47.6
4,2018-01-05,18:00:00,2377,46.7
4,2018-01-05,19:00:00,2549,47.4
4,2018-01-05,20:00:00,2652,45.6
4,2018-01-05,21:00:00,2659,21.6
4,2018-01-05,22:00:00,2312,8.8
4,2018-01-05,23:00:00,2172,8.2
4,2018-01-06,00:00:00,2090,9.5
4,2018-01-06,01:00:00,1940,7.1
4,2018-01-06,02:00:00,1549,6.4
4,2018-01-06,03:00:00,1292,5.6
4,2018-01-06,04:00:00,857,3.4
4,2018-01-06,05:00:00,701,3.2
4,2018-01-06,06:00:00,700,2.8
4,2018-01-06,07:00:00,703,3.2
4,2018-01-06,08:00:00,795,3.7
4,2018-01-06,09:00:00,1168,5.1
4,2018-01-06,10:00:00,1632,6
4,2018-01-06,11:00:00,2165,7.5
4,2018-01-06,12:00:00,2271,14
4,2018-01-06,13:00:00,2508,21.8
4,2018-01-06,14:00:00,2457,32.3
4,2018-01-06,15:00:00,2437,15.5
4,2018-01-06,16:00:00,2527,28.8
4,2018-01-06,17:00:00,2443,49.9
4,2018-01-06,18:00:00,2405,51.9
4,2018-01-06,19:00:00,2310,49.3
4,2018-01-06,20:00:00,2537,38.7
4,2018-01-06,21:00:00,2451,31.7
4,2018-01-06,22:00:00,2256,15.7
4,2018-01-06,23:00:00,2038,14.4
4,2018-01-07,00:00:00,2095,15.7
4,2018-01-07,01:00:00,2023,11.3
4,2018-01-07,02:00:00,1926,7.4
4,2018-01-07,03:00:00,1493,6.2
4,2018-01-07,04:00:00,1094,4.8
4,2018-01-07,05:00:00,910,3.6
4,2018-01-07,06:00:00,722,3
4,2018-01-07,07:00:00,689,2.8
4,2018-01-07,08:00:00,570,2
4,2018-01-07,09:00:00,668,2.7
4,2018-01-07,10:00:00,1071,4.6
4,2018-01-07,11:00:00,1333,4.7
4,2018-01-07,12:00:00,1736,6.8
4,2018-01-07,13:00:00,2274,8.8
4,2018-01-07,14:00:00,2190,8.1
4,2018-01-07,15:00:00,2257,9.5
4,2018-01-07,16:00:00,2307,10.3
4,2018-01-07,17:00:00,2369,23.8
4,2018-01-07,18:00:00,2155,18.2
4,2018-01-07,19:00:00,2207,24.6
4,2018-01-07,20:00:00,2284,9.8
4,2018-01-07,21:00:00,1799,6.3
4,2018-01-07,22:00:00,1563,6.2
4,2018-01-07,23:00:00,1387,5.1
4,2018-01-08,00:00:00,1176,4
4,2018-01-08,01:00:00,793,3.5
4,2018-01-08,02:00:00,485,2.2
4,2018-01-08,03:00:00,293,1.3
4,2018-01-08,04:00:00,192,.8
4,2018-01-08,05:00:00,240,1.1
4,2018-01-08,06:00:00,522,2.2
4,2018-01-08,07:00:00,1215,4.8
4,2018-01-08,08:00:00,2363,12.3
4,2018-01-08,09:00:00,2673,12.7
4,2018-01-08,10:00:00,2724,11.1
4,2018-01-08,11:00:00,2344,15.5
4,2018-01-08,12:00:00,2291,14.5
4,2018-01-08,13:00:00,2406,9.1
4,2018-01-08,14:00:00,2452,9.3
4,2018-01-08,15:00:00,2449,10.4
4,2018-01-08,16:00:00,2352,11
4,2018-01-08,17:00:00,2275,8.5
4,2018-01-08,18:00:00,2360,9.3
4,2018-01-08,19:00:00,2790,8.6
4,2018-01-08,20:00:00,2756,11.5
4,2018-01-08,21:00:00,2303,7.1
4,2018-01-08,22:00:00,1651,5.5
4,2018-01-08,23:00:00,1454,4.9
4,2018-01-09,00:00:00,1288,4
4,2018-01-09,01:00:00,957,3.5
4,2018-01-09,02:00:00,557,2.2
4,2018-01-09,03:00:00,383,1.6
4,2018-01-09,04:00:00,239,1
4,2018-01-09,05:00:00,249,1.4
4,2018-01-09,06:00:00,513,1.9
4,2018-01-09,07:00:00,1247,5.1
4,2018-01-09,08:00:00,2302,9.5
4,2018-01-09,09:00:00,2721,15.9
4,2018-01-09,10:00:00,2875,9.5
4,2018-01-09,11:00:00,2482,12.3
4,2018-01-09,12:00:00,2441,51.9
4,2018-01-09,13:00:00,2667,51.2
4,2018-01-09,14:00:00,2453,34.9
4,2018-01-09,15:00:00,2555,15.5
4,2018-01-09,16:00:00,2464,24.3
4,2018-01-09,17:00:00,2213,
4,2018-01-09,18:00:00,2149,
4,2018-01-09,19:00:00,2467,
4,2018-01-09,20:00:00,2744,
4,2018-01-09,21:00:00,2569,
4,2018-01-09,22:00:00,1999,
4,2018-01-09,23:00:00,1924,
4,2018-01-10,00:00:00,1906,
4,2018-01-10,01:00:00,1158,
4,2018-01-10,02:00:00,686,
4,2018-01-10,03:00:00,436,
4,2018-01-10,04:00:00,289,
4,2018-01-10,05:00:00,295,
4,2018-01-10,06:00:00,544,
4,2018-01-10,07:00:00,1232,
4,2018-01-10,08:00:00,2105,
4,2018-01-10,09:00:00,2529,
4,2018-01-10,10:00:00,2808,
4,2018-01-10,11:00:00,2457,
4,2018-01-10,12:00:00,2491,23.9
4,2018-01-10,13:00:00,2649,53.2
4,2018-01-10,14:00:00,2581,53.3
4,2018-01-10,15:00:00,2576,32
4,2018-01-10,16:00:00,2409,53.3
4,2018-01-10,17:00:00,2301,50
4,2018-01-10,18:00:00,2239,53.8
4,2018-01-10,19:00:00,2449,56.7
4,2018-01-10,20:00:00,2688,40.9
4,2018-01-10,21:00:00,2594,10.5
4,2018-01-10,22:00:00,2124,6.7
4,2018-01-10,23:00:00,1996,6.5
4,2018-01-11,00:00:00,1934,6.6
4,2018-01-11,01:00:00,1348,5.2
4,2018-01-11,02:00:00,817,3.3
4,2018-01-11,03:00:00,512,2.2
4,2018-01-11,04:00:00,315,1.3
4,2018-01-11,05:00:00,291,1.7
4,2018-01-11,06:00:00,587,2.3
4,2018-01-11,07:00:00,1344,4.9
4,2018-01-11,08:00:00,2227,20.4
4,2018-01-11,09:00:00,2586,21.7
4,2018-01-11,10:00:00,2817,25.7
4,2018-01-11,11:00:00,2508,20.7
4,2018-01-11,12:00:00,2592,29
4,2018-01-11,13:00:00,2648,49.8
4,2018-01-11,14:00:00,2554,19.7
4,2018-01-11,15:00:00,2551,48.3
4,2018-01-11,16:00:00,2505,54.6
4,2018-01-11,17:00:00,2044,57.4
4,2018-01-11,18:00:00,2224,55.7
4,2018-01-11,19:00:00,2477,50.3
4,2018-01-11,20:00:00,2869,45
4,2018-01-11,21:00:00,2648,25.7
4,2018-01-11,22:00:00,2197,7.4
4,2018-01-11,23:00:00,2080,7
4,2018-01-12,00:00:00,2171,8.1
4,2018-01-12,01:00:00,1654,6.4
4,2018-01-12,02:00:00,1180,4.8
4,2018-01-12,03:00:00,758,3.5
4,2018-01-12,04:00:00,440,2.1
4,2018-01-12,05:00:00,352,1.8
4,2018-01-12,06:00:00,614,2.6
4,2018-01-12,07:00:00,1125,4.7
4,2018-01-12,08:00:00,2211,10.6
4,2018-01-12,09:00:00,2532,38.2
4,2018-01-12,10:00:00,2648,25.6
4,2018-01-12,11:00:00,2422,36.5
4,2018-01-12,12:00:00,2486,51.1
4,2018-01-12,13:00:00,2651,51
4,2018-01-12,14:00:00,2594,23.1
4,2018-01-12,15:00:00,2499,31.3
4,2018-01-12,16:00:00,2488,54.1
4,2018-01-12,17:00:00,2296,46.9
4,2018-01-12,18:00:00,2295,51.1
4,2018-01-12,19:00:00,2542,37.9
4,2018-01-12,20:00:00,2745,46.7
4,2018-01-12,21:00:00,2797,27.7
4,2018-01-12,22:00:00,2387,8.5
4,2018-01-12,23:00:00,2080,8.1
4,2018-01-13,00:00:00,2198,8.6
4,2018-01-13,01:00:00,2114,7.9
4,2018-01-13,02:00:00,1619,7.1
4,2018-01-13,03:00:00,1437,6.2
4,2018-01-13,04:00:00,1028,4.1
4,2018-01-13,05:00:00,854,3.7
4,2018-01-13,06:00:00,685,3.4
4,2018-01-13,07:00:00,737,3.4
4,2018-01-13,08:00:00,859,4.1
4,2018-01-13,09:00:00,1274,5.8
4,2018-01-13,10:00:00,1773,6.2
4,2018-01-13,11:00:00,2066,7.3
4,2018-01-13,12:00:00,2398,9.1
4,2018-01-13,13:00:00,2410,24.4
4,2018-01-13,14:00:00,2398,13.4
4,2018-01-13,15:00:00,2437,33
4,2018-01-13,16:00:00,2547,34.2
4,2018-01-13,17:00:00,2548,49.8
4,2018-01-13,18:00:00,2429,50.7
4,2018-01-13,19:00:00,2370,49.5
4,2018-01-13,20:00:00,2484,46.8
4,2018-01-13,21:00:00,2540,43.5
4,2018-01-13,22:00:00,2297,31.1
4,2018-01-13,23:00:00,2206,24.4
4,2018-01-14,00:00:00,2253,36.2
4,2018-01-14,01:00:00,2180,27.5
4,2018-01-14,02:00:00,2205,10.6
4,2018-01-14,03:00:00,1729,6.8
4,2018-01-14,04:00:00,1270,5.6
4,2018-01-14,05:00:00,1051,4.5
4,2018-01-14,06:00:00,816,3.9
4,2018-01-14,07:00:00,629,3.2
4,2018-01-14,08:00:00,600,2.7
4,2018-01-14,09:00:00,831,3.4
4,2018-01-14,10:00:00,1147,4.4
4,2018-01-14,11:00:00,1602,5.5
4,2018-01-14,12:00:00,1974,7.2
4,2018-01-14,13:00:00,2328,8.8
4,2018-01-14,14:00:00,2394,9.8
4,2018-01-14,15:00:00,2393,13.4
4,2018-01-14,16:00:00,2410,42.4
4,2018-01-14,17:00:00,2498,41.6
4,2018-01-14,18:00:00,2372,44.5
4,2018-01-14,19:00:00,2318,51
4,2018-01-14,20:00:00,2264,30.9
4,2018-01-14,21:00:00,2105,8.4
4,2018-01-14,22:00:00,1675,5.9
4,2018-01-14,23:00:00,1437,5.3
4,2018-01-15,00:00:00,1292,4.5
4,2018-01-15,01:00:00,880,3.6
4,2018-01-15,02:00:00,635,2.7
4,2018-01-15,03:00:00,393,1.9
4,2018-01-15,04:00:00,236,1.1
4,2018-01-15,05:00:00,209,1.1
4,2018-01-15,06:00:00,570,2.2
4,2018-01-15,07:00:00,1351,5.5
4,2018-01-15,08:00:00,2279,9
4,2018-01-15,09:00:00,2791,19.3
4,2018-01-15,10:00:00,2805,26.5
4,2018-01-15,11:00:00,2483,36.6
4,2018-01-15,12:00:00,2351,48.2
4,2018-01-15,13:00:00,2460,48.6
4,2018-01-15,14:00:00,2272,52.5
4,2018-01-15,15:00:00,2209,53.1
4,2018-01-15,16:00:00,2251,56.6
4,2018-01-15,17:00:00,1822,57.8
4,2018-01-15,18:00:00,1922,51.6
4,2018-01-15,19:00:00,2490,45.7
4,2018-01-15,20:00:00,2717,40.2
4,2018-01-15,21:00:00,2392,6.8
4,2018-01-15,22:00:00,1988,5.8
4,2018-01-15,23:00:00,1806,5.7
4,2018-01-16,00:00:00,1640,5.3
4,2018-01-16,01:00:00,1007,3.9
4,2018-01-16,02:00:00,600,2.3
4,2018-01-16,03:00:00,407,1.5
4,2018-01-16,04:00:00,245,1.1
4,2018-01-16,05:00:00,224,1
4,2018-01-16,06:00:00,570,2.1
4,2018-01-16,07:00:00,1323,4.6
4,2018-01-16,08:00:00,2267,7.6
4,2018-01-16,09:00:00,2790,9.8
4,2018-01-16,10:00:00,2833,22.2
4,2018-01-16,11:00:00,2454,50.2
4,2018-01-16,12:00:00,2438,54.7
4,2018-01-16,13:00:00,2573,53.9
4,2018-01-16,14:00:00,2407,51.9
4,2018-01-16,15:00:00,2491,48.4
4,2018-01-16,16:00:00,2227,55.8
4,2018-01-16,17:00:00,1923,54.7
4,2018-01-16,18:00:00,2007,50.3
4,2018-01-16,19:00:00,2573,42.6
4,2018-01-16,20:00:00,2898,40.7
4,2018-01-16,21:00:00,2540,25.2
4,2018-01-16,22:00:00,2208,6.8
4,2018-01-16,23:00:00,2146,9.6
4,2018-01-17,00:00:00,2083,6.9
4,2018-01-17,01:00:00,1409,5.1
4,2018-01-17,02:00:00,884,3.2
4,2018-01-17,03:00:00,496,1.9
4,2018-01-17,04:00:00,333,1.4
4,2018-01-17,05:00:00,297,1.3
4,2018-01-17,06:00:00,584,2.3
4,2018-01-17,07:00:00,1315,5
4,2018-01-17,08:00:00,2180,7.4
4,2018-01-17,09:00:00,2717,21.7
4,2018-01-17,10:00:00,2830,15.1
4,2018-01-17,11:00:00,2575,47.8
4,2018-01-17,12:00:00,2383,50.6
4,2018-01-17,13:00:00,2557,53.7
4,2018-01-17,14:00:00,2523,54.7
4,2018-01-17,15:00:00,2448,57.3
4,2018-01-17,16:00:00,2177,55.9
4,2018-01-17,17:00:00,1805,54.8
4,2018-01-17,18:00:00,1866,53.6
4,2018-01-17,19:00:00,1941,55.4
4,2018-01-17,20:00:00,2578,48.7
4,2018-01-17,21:00:00,2685,33
4,2018-01-17,22:00:00,2069,7
4,2018-01-17,23:00:00,1864,5.8
4,2018-01-18,00:00:00,1956,28.8
4,2018-01-18,01:00:00,1513,5.6
4,2018-01-18,02:00:00,991,4.2
4,2018-01-18,03:00:00,586,2.3
4,2018-01-18,04:00:00,340,1.3
4,2018-01-18,05:00:00,295,1.5
4,2018-01-18,06:00:00,601,2.3
4,2018-01-18,07:00:00,1355,5.1
4,2018-01-18,08:00:00,2255,9.8
4,2018-01-18,09:00:00,2751,27.2
4,2018-01-18,10:00:00,2845,43.7
4,2018-01-18,11:00:00,2370,56.5
4,2018-01-18,12:00:00,2009,61.8
4,2018-01-18,13:00:00,2001,59.7
4,2018-01-18,14:00:00,2327,53.6
4,2018-01-18,15:00:00,2556,52.4
4,2018-01-18,16:00:00,2167,60.7
4,2018-01-18,17:00:00,1823,53.3
4,2018-01-18,18:00:00,1368,62.4
4,2018-01-18,19:00:00,2105,53.2
4,2018-01-18,20:00:00,2347,51.8
4,2018-01-18,21:00:00,2360,47.6
4,2018-01-18,22:00:00,2273,11.2
4,2018-01-18,23:00:00,2167,7.1
4,2018-01-19,00:00:00,2239,7.8
4,2018-01-19,01:00:00,1758,6.7
4,2018-01-19,02:00:00,1443,5.3
4,2018-01-19,03:00:00,895,3.5
4,2018-01-19,04:00:00,495,2
4,2018-01-19,05:00:00,478,1.8
4,2018-01-19,06:00:00,703,3.5
4,2018-01-19,07:00:00,1198,5.4
4,2018-01-19,08:00:00,2187,21
4,2018-01-19,09:00:00,2677,26.5
4,2018-01-19,10:00:00,2798,19.9
4,2018-01-19,11:00:00,2469,29.9
4,2018-01-19,12:00:00,2508,49.4
4,2018-01-19,13:00:00,2458,54.5
4,2018-01-19,14:00:00,2437,53.6
4,2018-01-19,15:00:00,2396,50.5
4,2018-01-19,16:00:00,2361,52.7
4,2018-01-19,17:00:00,1592,56.8
4,2018-01-19,18:00:00,1791,46.6
4,2018-01-19,19:00:00,1945,52.4
4,2018-01-19,20:00:00,2390,50.7
4,2018-01-19,21:00:00,2592,37.5
4,2018-01-19,22:00:00,2532,30
4,2018-01-19,23:00:00,2369,12.8
4,2018-01-20,00:00:00,2277,30.6
4,2018-01-20,01:00:00,2307,14.3
4,2018-01-20,02:00:00,1684,7.4
4,2018-01-20,03:00:00,1520,6.4
4,2018-01-20,04:00:00,990,4.3
4,2018-01-20,05:00:00,849,3.6
4,2018-01-20,06:00:00,686,3.1
4,2018-01-20,07:00:00,711,3
4,2018-01-20,08:00:00,931,3.8
4,2018-01-20,09:00:00,1354,5.7
4,2018-01-20,10:00:00,1969,7
4,2018-01-20,11:00:00,2263,9.9
4,2018-01-20,12:00:00,2289,23.1
4,2018-01-20,13:00:00,2452,38.1
4,2018-01-20,14:00:00,2402,50
4,2018-01-20,15:00:00,2357,48.4
4,2018-01-20,16:00:00,2507,44.1
4,2018-01-20,17:00:00,2439,58.2
4,2018-01-20,18:00:00,2346,46.6
4,2018-01-20,19:00:00,2219,47
4,2018-01-20,20:00:00,2477,43.6
4,2018-01-20,21:00:00,2393,47.7
4,2018-01-20,22:00:00,2229,33.6
4,2018-01-20,23:00:00,2228,21.6
4,2018-01-21,00:00:00,2314,31.1
4,2018-01-21,01:00:00,2264,27.3
4,2018-01-21,02:00:00,2138,17.7
4,2018-01-21,03:00:00,1818,7.4
4,2018-01-21,04:00:00,1456,6.4
4,2018-01-21,05:00:00,1145,4.6
4,2018-01-21,06:00:00,868,3.8
4,2018-01-21,07:00:00,790,3.3
4,2018-01-21,08:00:00,603,2.5
4,2018-01-21,09:00:00,879,3.7
4,2018-01-21,10:00:00,1238,5.1
4,2018-01-21,11:00:00,1689,6.1
4,2018-01-21,12:00:00,2094,7.6
4,2018-01-21,13:00:00,2351,10.5
4,2018-01-21,14:00:00,2343,8.9
4,2018-01-21,15:00:00,2255,20.2
4,2018-01-21,16:00:00,2533,27.6
4,2018-01-21,17:00:00,2396,41.2
4,2018-01-21,18:00:00,2293,38.7
4,2018-01-21,19:00:00,2348,37
4,2018-01-21,20:00:00,2347,34.1
4,2018-01-21,21:00:00,2183,6.6
4,2018-01-21,22:00:00,1796,6.4
4,2018-01-21,23:00:00,1533,5
4,2018-01-22,00:00:00,1552,4.9
4,2018-01-22,01:00:00,989,3.8
4,2018-01-22,02:00:00,634,2.6
4,2018-01-22,03:00:00,343,1.3
4,2018-01-22,04:00:00,249,1
4,2018-01-22,05:00:00,260,1.2
4,2018-01-22,06:00:00,554,2.3
4,2018-01-22,07:00:00,1319,4.8
4,2018-01-22,08:00:00,2311,8.3
4,2018-01-22,09:00:00,2486,36.5
4,2018-01-22,10:00:00,2646,33.4
4,2018-01-22,11:00:00,2440,31.4
4,2018-01-22,12:00:00,2541,39.9
4,2018-01-22,13:00:00,2338,55
4,2018-01-22,14:00:00,2466,50
4,2018-01-22,15:00:00,2450,51.2
4,2018-01-22,16:00:00,2429,56.5
4,2018-01-22,17:00:00,2184,52.9
4,2018-01-22,18:00:00,2401,52.6
4,2018-01-22,19:00:00,2425,51.1
4,2018-01-22,20:00:00,2576,48.1
4,2018-01-22,21:00:00,2635,21
4,2018-01-22,22:00:00,2066,6.6
4,2018-01-22,23:00:00,1980,7.2
4,2018-01-23,00:00:00,1889,6.5
4,2018-01-23,01:00:00,1162,4.5
4,2018-01-23,02:00:00,703,2.9
4,2018-01-23,03:00:00,450,2
4,2018-01-23,04:00:00,326,1.4
4,2018-01-23,05:00:00,276,1.3
4,2018-01-23,06:00:00,571,2.4
4,2018-01-23,07:00:00,1339,5.3
4,2018-01-23,08:00:00,2278,23.5
4,2018-01-23,09:00:00,2694,16.3
4,2018-01-23,10:00:00,2932,20.9
4,2018-01-23,11:00:00,2625,44.8
4,2018-01-23,12:00:00,2566,53.5
4,2018-01-23,13:00:00,2438,53.4
4,2018-01-23,14:00:00,2538,23.1
4,2018-01-23,15:00:00,2670,39.4
4,2018-01-23,16:00:00,2391,55.5
4,2018-01-23,17:00:00,2364,55.4
4,2018-01-23,18:00:00,2236,53.6
4,2018-01-23,19:00:00,2592,46
4,2018-01-23,20:00:00,2538,54.1
4,2018-01-23,21:00:00,2536,32.4
4,2018-01-23,22:00:00,2101,7.1
4,2018-01-23,23:00:00,1771,6.2
4,2018-01-24,00:00:00,1656,6.1
4,2018-01-24,01:00:00,1138,4.9
4,2018-01-24,02:00:00,647,2.9
4,2018-01-24,03:00:00,442,1.7
4,2018-01-24,04:00:00,251,1.1
4,2018-01-24,05:00:00,247,1.1
4,2018-01-24,06:00:00,446,2
4,2018-01-24,07:00:00,1199,4.8
4,2018-01-24,08:00:00,1995,7
4,2018-01-24,09:00:00,2637,11.3
4,2018-01-24,10:00:00,2759,12.8
4,2018-01-24,11:00:00,2423,12.2
4,2018-01-24,12:00:00,2192,19.1
4,2018-01-24,13:00:00,2534,42.6
4,2018-01-24,14:00:00,2597,37.2
4,2018-01-24,15:00:00,2589,22.2
4,2018-01-24,16:00:00,2390,56.9
4,2018-01-24,17:00:00,1745,61.1
4,2018-01-24,18:00:00,1360,71.5
4,2018-01-24,19:00:00,1392,65.2
4,2018-01-24,20:00:00,1650,68.5
4,2018-01-24,21:00:00,2427,33.6
4,2018-01-24,22:00:00,2179,6.8
4,2018-01-24,23:00:00,1968,6.6
4,2018-01-25,00:00:00,1969,6.3
4,2018-01-25,01:00:00,1290,5.2
4,2018-01-25,02:00:00,869,3.1
4,2018-01-25,03:00:00,531,1.8
4,2018-01-25,04:00:00,294,1.4
4,2018-01-25,05:00:00,286,1.2
4,2018-01-25,06:00:00,508,1.7
4,2018-01-25,07:00:00,1085,4.4
4,2018-01-25,08:00:00,1888,6
4,2018-01-25,09:00:00,2417,23.4
4,2018-01-25,10:00:00,2664,18
4,2018-01-25,11:00:00,2315,26
4,2018-01-25,12:00:00,2274,55.7
4,2018-01-25,13:00:00,2488,44.6
4,2018-01-25,14:00:00,2387,48.6
4,2018-01-25,15:00:00,2442,44.5
4,2018-01-25,16:00:00,2404,48
4,2018-01-25,17:00:00,2499,38.1
4,2018-01-25,18:00:00,2378,56
4,2018-01-25,19:00:00,2384,50.4
4,2018-01-25,20:00:00,2357,48.9
4,2018-01-25,21:00:00,2295,47.7
4,2018-01-25,22:00:00,2009,9.7
4,2018-01-25,23:00:00,1893,7
4,2018-01-26,00:00:00,1996,7.1
4,2018-01-26,01:00:00,1578,5.7
4,2018-01-26,02:00:00,1153,4.3
4,2018-01-26,03:00:00,825,3.5
4,2018-01-26,04:00:00,437,2.1
4,2018-01-26,05:00:00,380,1.7
4,2018-01-26,06:00:00,575,2.5
4,2018-01-26,07:00:00,1120,4.7
4,2018-01-26,08:00:00,1792,7.2
4,2018-01-26,09:00:00,2393,9.5
4,2018-01-26,10:00:00,2568,24.8
4,2018-01-26,11:00:00,2376,23.8
4,2018-01-26,12:00:00,2508,29.8
4,2018-01-26,13:00:00,2423,56.5
4,2018-01-26,14:00:00,2153,44.5
4,2018-01-26,15:00:00,2565,12.5
4,2018-01-26,16:00:00,2545,44.1
4,2018-01-26,17:00:00,2519,44.2
4,2018-01-26,18:00:00,2645,21.2
4,2018-01-26,19:00:00,2692,32.5
4,2018-01-26,20:00:00,2876,23.7
4,2018-01-26,21:00:00,2403,7.5
4,2018-01-26,22:00:00,2050,18.2
4,2018-01-26,23:00:00,2015,7.2
4,2018-01-27,00:00:00,2008,8.3
4,2018-01-27,01:00:00,2001,7.2
4,2018-01-27,02:00:00,1488,5.8
4,2018-01-27,03:00:00,1275,5.3
4,2018-01-27,04:00:00,938,4
4,2018-01-27,05:00:00,784,3.4
4,2018-01-27,06:00:00,583,3.3
4,2018-01-27,07:00:00,704,3
4,2018-01-27,08:00:00,821,3.6
4,2018-01-27,09:00:00,1108,4.4
4,2018-01-27,10:00:00,1629,6.5
4,2018-01-27,11:00:00,1977,7.3
4,2018-01-27,12:00:00,2114,8.5
4,2018-01-27,13:00:00,2323,10.6
4,2018-01-27,14:00:00,2308,8.4
4,2018-01-27,15:00:00,2359,16.4
4,2018-01-27,16:00:00,2457,28.5
4,2018-01-27,17:00:00,2344,23.7
4,2018-01-27,18:00:00,2490,33
4,2018-01-27,19:00:00,2420,37.3
4,2018-01-27,20:00:00,2536,39.4
4,2018-01-27,21:00:00,2476,46.5
4,2018-01-27,22:00:00,1974,20.4
4,2018-01-27,23:00:00,1967,8.2
4,2018-01-28,00:00:00,2130,22
4,2018-01-28,01:00:00,1992,8.9
4,2018-01-28,02:00:00,1911,7
4,2018-01-28,03:00:00,1465,5.7
4,2018-01-28,04:00:00,1175,4.9
4,2018-01-28,05:00:00,897,3.7
4,2018-01-28,06:00:00,761,2.9
4,2018-01-28,07:00:00,594,2.2
4,2018-01-28,08:00:00,480,2
4,2018-01-28,09:00:00,679,2.9
4,2018-01-28,10:00:00,988,4.3
4,2018-01-28,11:00:00,1450,5.4
4,2018-01-28,12:00:00,1840,6.8
4,2018-01-28,13:00:00,2175,8.4
4,2018-01-28,14:00:00,2155,8.1
4,2018-01-28,15:00:00,2180,8.6
4,2018-01-28,16:00:00,2439,26.8
4,2018-01-28,17:00:00,2354,33.5
4,2018-01-28,18:00:00,2280,29.9
4,2018-01-28,19:00:00,2143,29.1
4,2018-01-28,20:00:00,2151,8.4
4,2018-01-28,21:00:00,1913,6.9
4,2018-01-28,22:00:00,1425,5.6
4,2018-01-28,23:00:00,1305,5.3
4,2018-01-29,00:00:00,1196,4.5
4,2018-01-29,01:00:00,775,3
4,2018-01-29,02:00:00,533,2.3
4,2018-01-29,03:00:00,293,1.4
4,2018-01-29,04:00:00,216,1.1
4,2018-01-29,05:00:00,216,1.3
4,2018-01-29,06:00:00,473,2
4,2018-01-29,07:00:00,1131,4.4
4,2018-01-29,08:00:00,1827,6.4
4,2018-01-29,09:00:00,2486,8.2
4,2018-01-29,10:00:00,2514,7.7
4,2018-01-29,11:00:00,2026,8.3
4,2018-01-29,12:00:00,2258,28.5
4,2018-01-29,13:00:00,2409,13
4,2018-01-29,14:00:00,2329,9.5
4,2018-01-29,15:00:00,2360,9.3
4,2018-01-29,16:00:00,2279,11.3
4,2018-01-29,17:00:00,2290,11.4
4,2018-01-29,18:00:00,2328,10.8
4,2018-01-29,19:00:00,2501,9.9
4,2018-01-29,20:00:00,2614,8.9
4,2018-01-29,21:00:00,2280,6.5
4,2018-01-29,22:00:00,1635,5.4
4,2018-01-29,23:00:00,1539,5.5
4,2018-01-30,00:00:00,1361,5.2
4,2018-01-30,01:00:00,851,3.6
4,2018-01-30,02:00:00,507,2
4,2018-01-30,03:00:00,353,1.6
4,2018-01-30,04:00:00,216,1.2
4,2018-01-30,05:00:00,211,1.1
4,2018-01-30,06:00:00,481,2.1
4,2018-01-30,07:00:00,1131,4.1
4,2018-01-30,08:00:00,1875,6.5
4,2018-01-30,09:00:00,2540,9.2
4,2018-01-30,10:00:00,2664,12.8
4,2018-01-30,11:00:00,2444,8.8
4,2018-01-30,12:00:00,2387,15.3
4,2018-01-30,13:00:00,2602,10.1
4,2018-01-30,14:00:00,2358,9.5
4,2018-01-30,15:00:00,2466,25
4,2018-01-30,16:00:00,2473,32.6
4,2018-01-30,17:00:00,2461,26.2
4,2018-01-30,18:00:00,2377,13.4
4,2018-01-30,19:00:00,2651,30.5
4,2018-01-30,20:00:00,2757,26
4,2018-01-30,21:00:00,2449,6.8
4,2018-01-30,22:00:00,1826,5.8
4,2018-01-30,23:00:00,1630,5.4
4,2018-01-31,00:00:00,1474,5.2
4,2018-01-31,01:00:00,995,4
4,2018-01-31,02:00:00,557,2.5
4,2018-01-31,03:00:00,335,1.6
4,2018-01-31,04:00:00,244,1
4,2018-01-31,05:00:00,230,1.2
4,2018-01-31,06:00:00,436,2
4,2018-01-31,07:00:00,1059,4.3
4,2018-01-31,08:00:00,1774,6.8
4,2018-01-31,09:00:00,2489,26.6
4,2018-01-31,10:00:00,2482,11.4
4,2018-01-31,11:00:00,2349,8.4
4,2018-01-31,12:00:00,2308,12.1
4,2018-01-31,13:00:00,2496,10.8
4,2018-01-31,14:00:00,2406,33.1
4,2018-01-31,15:00:00,2347,50.5
4,2018-01-31,16:00:00,2271,50.4
4,2018-01-31,17:00:00,2298,44.7
4,2018-01-31,18:00:00,2415,24.3
4,2018-01-31,19:00:00,2606,20.5
4,2018-01-31,20:00:00,2753,30.3
4,2018-01-31,21:00:00,2649,10.6
4,2018-01-31,22:00:00,1942,5.9
4,2018-01-31,23:00:00,1631,5.4
4,2018-02-01,00:00:00,1629,5.9
